Sample in Buffer,Sample in Window,TRIGGER,g_gem_logic.i_gem/g_emtf_links_enabled.g_emtf_links[5].i_emtf_lpgbt_tx/tx_dp_frame[255:0],g_gem_logic.i_gem/g_emtf_links_enabled.g_emtf_links[5].i_emtf_lpgbt_tx/tx_gb_out_data[63:0],g_gem_logic.i_gem/g_emtf_links_enabled.g_emtf_links[5].i_emtf_lpgbt_tx/tx_gb_reset,g_gem_logic.i_gem/g_emtf_links_enabled.g_emtf_links[5].i_emtf_lpgbt_tx/tx_gb_ready
Radix - UNSIGNED,UNSIGNED,UNSIGNED,HEX,HEX,HEX,HEX
0,0,0,97cfade97c127fb0fad977b8dbd8cfa5ba653cd84b8f04a9588940d1bd42bcb6,edcf1ced66bd9781,0,1
1,1,0,97cfade97c127fb0fad977b8dbd8cfa5ba653cd84b8f04a9588940d1bd42bcb6,d0775bb9f3b6e1fb,0,1
2,2,0,97cfade97c127fb0fad977b8dbd8cfa5ba653cd84b8f04a9588940d1bd42bcb6,2558edaddc07951b,0,1
3,3,0,97cfade97c127fb0fad977b8dbd8cfa5ba653cd84b8f04a9588940d1bd42bcb6,0c1e7f27dfdd379d,0,1
4,4,0,8c6cf4fec2763f14d7ce2cb94d9083a8950bca60bb25316d17e5a0225081a088,3c7321b2e92eff0f,0,1
5,5,0,8c6cf4fec2763f14d7ce2cb94d9083a8950bca60bb25316d17e5a0225081a088,f4f859b1e1b84fa7,0,1
6,6,0,8c6cf4fec2763f14d7ce2cb94d9083a8950bca60bb25316d17e5a0225081a088,d44a6ebaa8559615,0,1
7,7,0,8c6cf4fec2763f14d7ce2cb94d9083a8950bca60bb25316d17e5a0225081a088,0dfe483e97b5f3e9,0,1
8,8,0,ae0f46c14dc1390295a53f199380f08160a92f7011d0d90629e815b237d0c02e,a5f31bdb1dee9b5f,0,1
9,9,0,ae0f46c14dc1390295a53f199380f08160a92f7011d0d90629e815b237d0c02e,9520f1d21b3ca65d,0,1
10,10,0,ae0f46c14dc1390295a53f199380f08160a92f7011d0d90629e815b237d0c02e,6d3d42bd8b02911a,0,1
11,11,0,ae0f46c14dc1390295a53f199380f08160a92f7011d0d90629e815b237d0c02e,28fc6e437f2f3631,0,1
12,12,0,82aa099498b6d978a8c1c6b469164406ba2fb2f6eccf7ca536304afa86e800e7,15c109b29d3473eb,0,1
13,13,0,82aa099498b6d978a8c1c6b469164406ba2fb2f6eccf7ca536304afa86e800e7,b68ca4dd0653d0a9,0,1
14,14,0,82aa099498b6d978a8c1c6b469164406ba2fb2f6eccf7ca536304afa86e800e7,1105810a4405a7e8,0,1
15,15,0,82aa099498b6d978a8c1c6b469164406ba2fb2f6eccf7ca536304afa86e800e7,409c83b28362f075,0,1
16,16,0,8729c19673f872947c1fd4d96ff829f25028f4f99e65dc7f34962af971e13dbf,810f01c998fca5a9,0,1
17,17,0,8729c19673f872947c1fd4d96ff829f25028f4f99e65dc7f34962af971e13dbf,609b0b880ef49506,0,1
18,18,0,8729c19673f872947c1fd4d96ff829f25028f4f99e65dc7f34962af971e13dbf,74030bec4da81794,0,1
19,19,0,8729c19673f872947c1fd4d96ff829f25028f4f99e65dc7f34962af971e13dbf,1e9b6d1929905541,0,1
20,20,0,85276217789dffe8af175fc3b8bde827200eb37dc51a7a2b28d13ebb32e428ad,602268962d638315,0,1
21,21,0,85276217789dffe8af175fc3b8bde827200eb37dc51a7a2b28d13ebb32e428ad,a53ef3376f4df45d,0,1
22,22,0,85276217789dffe8af175fc3b8bde827200eb37dc51a7a2b28d13ebb32e428ad,e70017615f520c6c,0,1
23,23,0,85276217789dffe8af175fc3b8bde827200eb37dc51a7a2b28d13ebb32e428ad,294e1fce698394e1,0,1
24,24,0,ad29d6c69b584ed33e099fc29e1e29e8b5afa16ef0a498b22c20d5bddbd908f1,4f941ff69b2bf83e,0,1
25,25,0,ad29d6c69b584ed33e099fc29e1e29e8b5afa16ef0a498b22c20d5bddbd908f1,fe3ba6799f2f140a,0,1
26,26,0,ad29d6c69b584ed33e099fc29e1e29e8b5afa16ef0a498b22c20d5bddbd908f1,fdbc878e9f54692c,0,1
27,27,0,ad29d6c69b584ed33e099fc29e1e29e8b5afa16ef0a498b22c20d5bddbd908f1,17ffb91ee846e4a1,0,1
28,28,0,9a964ed68efdc2894ec05081cfdfd5287b6b7fee5a30380f0ebe427e42f9ccbc,e417bd1dc3fae8f5,0,1
29,29,0,9a964ed68efdc2894ec05081cfdfd5287b6b7fee5a30380f0ebe427e42f9ccbc,d45e58a3becd7004,0,1
30,30,0,9a964ed68efdc2894ec05081cfdfd5287b6b7fee5a30380f0ebe427e42f9ccbc,b514274cdd7c8b14,0,1
31,31,0,9a964ed68efdc2894ec05081cfdfd5287b6b7fee5a30380f0ebe427e42f9ccbc,cb721ad9636b94b5,0,1
32,32,0,8f14a077a4f730e31e22d4da22bdba6d7a6ad0dff119190f2df5fdf4a39fd01a,1794787943f9907c,0,1
33,33,0,8f14a077a4f730e31e22d4da22bdba6d7a6ad0dff119190f2df5fdf4a39fd01a,4d19250f7685f5ad,0,1
34,34,0,8f14a077a4f730e31e22d4da22bdba6d7a6ad0dff119190f2df5fdf4a39fd01a,8f109bdbbdab0434,0,1
35,35,0,8f14a077a4f730e31e22d4da22bdba6d7a6ad0dff119190f2df5fdf4a39fd01a,9143bf716b726959,0,1
36,36,0,ba59523753d6e7540c84c5451b7e11269d8f0e7c103233536d6c103c42aa7fd5,14abfbf3810a0372,0,1
37,37,0,ba59523753d6e7540c84c5451b7e11269d8f0e7c103233536d6c103c42aa7fd5,f01c0c5a77fed6de,0,1
38,38,0,ba59523753d6e7540c84c5451b7e11269d8f0e7c103233536d6c103c42aa7fd5,3d339f427e427d70,0,1
39,39,0,ba59523753d6e7540c84c5451b7e11269d8f0e7c103233536d6c103c42aa7fd5,c70cef25ee0528f1,0,1
40,40,0,8e0c0b84dfcd8a079fcc93754498f7c2b7a4fd0d22f6dab27ab7aba01b1f2f30,b65dbd445b2b4478,0,1
41,41,0,8e0c0b84dfcd8a079fcc93754498f7c2b7a4fd0d22f6dab27ab7aba01b1f2f30,f098988ffb0b565e,0,1
42,42,0,8e0c0b84dfcd8a079fcc93754498f7c2b7a4fd0d22f6dab27ab7aba01b1f2f30,580bf9c52fbfafb4,0,1
43,43,0,8e0c0b84dfcd8a079fcc93754498f7c2b7a4fd0d22f6dab27ab7aba01b1f2f30,2ae76bcaec4a9a5d,0,1
44,44,0,b02caa5760ba6def6b8c779fbc18819b94a8c2b918666cb78f8db8e7829646ae,64887ed8a2a32130,0,1
45,45,0,b02caa5760ba6def6b8c779fbc18819b94a8c2b918666cb78f8db8e7829646ae,cacc4c083e70f1b9,0,1
46,46,0,b02caa5760ba6def6b8c779fbc18819b94a8c2b918666cb78f8db8e7829646ae,abfe55423c0836b6,0,1
47,47,0,b02caa5760ba6def6b8c779fbc18819b94a8c2b918666cb78f8db8e7829646ae,e051b3fb21d03071,0,1
48,48,0,a39e1b10ac45ea4478b2789b9d3067052e35343d10b1c2cf12428ac452fb8e56,43ef1922aec933f9,0,1
49,49,0,a39e1b10ac45ea4478b2789b9d3067052e35343d10b1c2cf12428ac452fb8e56,4d5b6f44b0bf25ed,0,1
50,50,0,a39e1b10ac45ea4478b2789b9d3067052e35343d10b1c2cf12428ac452fb8e56,0cf4f8d805d5ed5e,0,1
51,51,0,a39e1b10ac45ea4478b2789b9d3067052e35343d10b1c2cf12428ac452fb8e56,f7b65d06ea55340d,0,1
52,52,0,8a3911d02d3d098da4158cb1ea7eed14da977314e513571a879817bb31a5ef8b,d981183df9ee31d6,0,1
53,53,0,8a3911d02d3d098da4158cb1ea7eed14da977314e513571a879817bb31a5ef8b,ed3666189d431529,0,1
54,54,0,8a3911d02d3d098da4158cb1ea7eed14da977314e513571a879817bb31a5ef8b,75626941e71db1f1,0,1
55,55,0,8a3911d02d3d098da4158cb1ea7eed14da977314e513571a879817bb31a5ef8b,2257a23508d879c5,0,1
56,56,0,b968694b4636a451f9a0097d0e89387fc29f5005375986014129efe7bbce40fa,a0e60cb9d91e4d1e,0,1
57,57,0,b968694b4636a451f9a0097d0e89387fc29f5005375986014129efe7bbce40fa,f3438d08bc2cac74,0,1
58,58,0,b968694b4636a451f9a0097d0e89387fc29f5005375986014129efe7bbce40fa,6a71df4a23514248,0,1
59,59,0,b968694b4636a451f9a0097d0e89387fc29f5005375986014129efe7bbce40fa,b190bcb40b889c51,0,1
60,60,0,b362bfd672cb8b7cd2d31fca5a87879c7cec0cea73034f5eb438a319442257bd,28b77e578d31a825,0,1
61,61,0,b362bfd672cb8b7cd2d31fca5a87879c7cec0cea73034f5eb438a319442257bd,58eac8a728cee95b,0,1
62,62,0,b362bfd672cb8b7cd2d31fca5a87879c7cec0cea73034f5eb438a319442257bd,d1f7a58cdde819e1,0,1
63,63,0,b362bfd672cb8b7cd2d31fca5a87879c7cec0cea73034f5eb438a319442257bd,8a256c62d296169d,0,1
64,64,0,951cea666ad691f481d9732254dddfd33e2d700eb00560ba9f255b75462df069,fe1c9170be90059f,0,1
65,65,0,951cea666ad691f481d9732254dddfd33e2d700eb00560ba9f255b75462df069,80619aeca00af943,0,1
66,66,0,951cea666ad691f481d9732254dddfd33e2d700eb00560ba9f255b75462df069,5f0273dde7f79482,0,1
67,67,0,951cea666ad691f481d9732254dddfd33e2d700eb00560ba9f255b75462df069,3ed1d34e6bfd46cd,0,1
68,68,0,920cb4a8544756d7f0f321fe4a6192d38671c8cae9a7c5e76dbaae46ce6c8954,39e1e15a53f8cb4b,0,1
69,69,0,920cb4a8544756d7f0f321fe4a6192d38671c8cae9a7c5e76dbaae46ce6c8954,7af2c0ce5730373e,0,1
70,70,0,920cb4a8544756d7f0f321fe4a6192d38671c8cae9a7c5e76dbaae46ce6c8954,bdea442298c51c2d,0,1
71,71,0,920cb4a8544756d7f0f321fe4a6192d38671c8cae9a7c5e76dbaae46ce6c8954,2f896b56665738a9,0,1
72,72,0,a5b5c269660890411fb450ac1a3f8ae56615e9dcb554d98b07163e37bfc83189,cbfbbb2a44ce9b81,0,1
73,73,0,a5b5c269660890411fb450ac1a3f8ae56615e9dcb554d98b07163e37bfc83189,5d06a00d700eb47c,0,1
74,74,0,a5b5c269660890411fb450ac1a3f8ae56615e9dcb554d98b07163e37bfc83189,960fb462aedaa4f9,0,1
75,75,0,a5b5c269660890411fb450ac1a3f8ae56615e9dcb554d98b07163e37bfc83189,eb6ae22a152d3049,0,1
76,76,0,a5630a481fe805323087ba5367bd0db92d553d7240660da75187697e54a39124,cb4986527f84cf0f,0,1
77,77,0,a5630a481fe805323087ba5367bd0db92d553d7240660da75187697e54a39124,e7a3e59753138e61,0,1
78,78,0,a5630a481fe805323087ba5367bd0db92d553d7240660da75187697e54a39124,2a91367362755db6,0,1
79,79,0,a5630a481fe805323087ba5367bd0db92d553d7240660da75187697e54a39124,820910669643ada5,0,1
80,80,0,aa4f0fa61e4d3cd95d4715a6f463fd3affe530328dc258205a785b9fa7695232,a751fc58350a2df8,0,1
81,81,0,aa4f0fa61e4d3cd95d4715a6f463fd3affe530328dc258205a785b9fa7695232,d19b2aad3b97a866,0,1
82,82,0,aa4f0fa61e4d3cd95d4715a6f463fd3affe530328dc258205a785b9fa7695232,918c13fdec7c68e0,0,1
83,83,0,aa4f0fa61e4d3cd95d4715a6f463fd3affe530328dc258205a785b9fa7695232,4ca017f81250c6a5,0,1
84,84,0,97a02ceaa7025c39ac84f421b9648ceb10f0639787c26dffc09c20dd1ab6cf6e,9db0bde6ca5de10c,0,1
85,85,0,97a02ceaa7025c39ac84f421b9648ceb10f0639787c26dffc09c20dd1ab6cf6e,e5b066024ebcaab4,0,1
86,86,0,97a02ceaa7025c39ac84f421b9648ceb10f0639787c26dffc09c20dd1ab6cf6e,2489c52a7e96e18a,0,1
87,87,0,97a02ceaa7025c39ac84f421b9648ceb10f0639787c26dffc09c20dd1ab6cf6e,9b3cb27865f0f255,0,1
88,88,0,bfecc9f56546e29fc6358f463d826b62c275b14dae1d7ac510e85afc585d9bae,5cbfc62f65a8e2ba,0,1
89,89,0,bfecc9f56546e29fc6358f463d826b62c275b14dae1d7ac510e85afc585d9bae,041a43b14c0ca7ff,0,1
90,90,0,bfecc9f56546e29fc6358f463d826b62c275b14dae1d7ac510e85afc585d9bae,4c4a96e5f9da1e5a,0,1
91,91,0,bfecc9f56546e29fc6358f463d826b62c275b14dae1d7ac510e85afc585d9bae,9c3a40e5573405e9,0,1
92,92,0,86bd4cd36d72e5fbd110f95cf5f1fe9af277d838d0676e5864cbbff32f0aaa2b,d731269d842f2135,0,1
93,93,0,86bd4cd36d72e5fbd110f95cf5f1fe9af277d838d0676e5864cbbff32f0aaa2b,ffb643e1e9c60f08,0,1
94,94,0,86bd4cd36d72e5fbd110f95cf5f1fe9af277d838d0676e5864cbbff32f0aaa2b,76f36d58bb043903,0,1
95,95,0,86bd4cd36d72e5fbd110f95cf5f1fe9af277d838d0676e5864cbbff32f0aaa2b,f94762a6af9337fd,0,1
96,96,0,a2f6cddb8a404195c835e749fdee300d5ae69796da5d7615ea148fdd20b7712e,46d641bc62f1ac63,0,1
97,97,0,a2f6cddb8a404195c835e749fdee300d5ae69796da5d7615ea148fdd20b7712e,a35eb875b28dae43,0,1
98,98,0,a2f6cddb8a404195c835e749fdee300d5ae69796da5d7615ea148fdd20b7712e,75d9ba1a3f5a1708,0,1
99,99,0,a2f6cddb8a404195c835e749fdee300d5ae69796da5d7615ea148fdd20b7712e,dfa74eb6cb32bd61,0,1
100,100,0,b90326e4a76a53f9c0de18152181b5bf50fcb36d7b174c87285febc3f41b0430,597f8faf3a9f088b,0,1
101,101,0,b90326e4a76a53f9c0de18152181b5bf50fcb36d7b174c87285febc3f41b0430,1a76e60b1c1bee4f,0,1
102,102,0,b90326e4a76a53f9c0de18152181b5bf50fcb36d7b174c87285febc3f41b0430,d45550f4cffdd326,0,1
103,103,0,b90326e4a76a53f9c0de18152181b5bf50fcb36d7b174c87285febc3f41b0430,a9820251dbb36f45,0,1
104,104,0,b75acbe4aba7ab4bb67f334c2dfde6e9b2576e013a494a1e0d561ba80525b978,b00c77bf92e7ac13,0,1
105,105,0,b75acbe4aba7ab4bb67f334c2dfde6e9b2576e013a494a1e0d561ba80525b978,a86eba5b69e9675a,0,1
106,106,0,b75acbe4aba7ab4bb67f334c2dfde6e9b2576e013a494a1e0d561ba80525b978,748eed04bbf12857,0,1
107,107,0,b75acbe4aba7ab4bb67f334c2dfde6e9b2576e013a494a1e0d561ba80525b978,9fca56e52764c09d,0,1
108,108,0,b15792ad27a6e02bc2c707e54d2cf77ae64bd3df92f31b7df05976c6845a3ea9,fdad8184a8187b03,0,1
109,109,0,b15792ad27a6e02bc2c707e54d2cf77ae64bd3df92f31b7df05976c6845a3ea9,e132e8deb6cd3f0a,0,1
110,110,0,b15792ad27a6e02bc2c707e54d2cf77ae64bd3df92f31b7df05976c6845a3ea9,0c20d82fc3d7fa14,0,1
111,111,0,b15792ad27a6e02bc2c707e54d2cf77ae64bd3df92f31b7df05976c6845a3ea9,d2d5e5d527d35aed,0,1
112,112,0,be451fd9935fb1f9657731dae5568684beb16d4edcc07365a0034f02c2c44005,9767bfb432ccfe6d,0,1
113,113,0,be451fd9935fb1f9657731dae5568684beb16d4edcc07365a0034f02c2c44005,7852925c8076ea4d,0,1
114,114,0,be451fd9935fb1f9657731dae5568684beb16d4edcc07365a0034f02c2c44005,1e9da4a015d86ab0,0,1
115,115,0,be451fd9935fb1f9657731dae5568684beb16d4edcc07365a0034f02c2c44005,d40765e4b549ea8d,0,1
116,116,0,a1199437af68c5316bbe7147e0619619d9c5c8c02e43e640c2c53016b4e1a2fd,5eef34b2a7e0e343,0,1
117,117,0,a1199437af68c5316bbe7147e0619619d9c5c8c02e43e640c2c53016b4e1a2fd,bed8cf49fbcbd267,0,1
118,118,0,a1199437af68c5316bbe7147e0619619d9c5c8c02e43e640c2c53016b4e1a2fd,957c5a21636e9a0f,0,1
119,119,0,a1199437af68c5316bbe7147e0619619d9c5c8c02e43e640c2c53016b4e1a2fd,9f8dfac99bf8a27d,0,1
120,120,0,a97fd14dd2d109e6fb1fdf327549151502aa5333a60f9a2ebde268288a115605,21616aa75b8ceea6,0,1
121,121,0,a97fd14dd2d109e6fb1fdf327549151502aa5333a60f9a2ebde268288a115605,a6ce033b72b68d7d,0,1
122,122,0,a97fd14dd2d109e6fb1fdf327549151502aa5333a60f9a2ebde268288a115605,a002234340f2c005,0,1
123,123,0,a97fd14dd2d109e6fb1fdf327549151502aa5333a60f9a2ebde268288a115605,8ca316f5ec299885,0,1
124,124,0,8fef8d334f4808bbdd5502fe4740d44029a298c273d4313525d5a9ee2a02a32f,98698607e28e7dd6,0,1
125,125,0,8fef8d334f4808bbdd5502fe4740d44029a298c273d4313525d5a9ee2a02a32f,0267c2740313a39b,0,1
126,126,0,8fef8d334f4808bbdd5502fe4740d44029a298c273d4313525d5a9ee2a02a32f,bf45872d680ca343,0,1
127,127,0,8fef8d334f4808bbdd5502fe4740d44029a298c273d4313525d5a9ee2a02a32f,67908b4bb28bfe95,0,1
128,128,0,be88956f782c085e4434ed31cf4780b9296618a9cc598bfb4ecdde7efd3eef09,a8a892ae4cfbf8df,0,1
129,129,0,be88956f782c085e4434ed31cf4780b9296618a9cc598bfb4ecdde7efd3eef09,7459f065ccca5540,0,1
130,130,0,be88956f782c085e4434ed31cf4780b9296618a9cc598bfb4ecdde7efd3eef09,a06a8851141647bd,0,1
131,131,0,be88956f782c085e4434ed31cf4780b9296618a9cc598bfb4ecdde7efd3eef09,dd1012f2ccb1f7f1,0,1
132,132,0,bc182c88845ac68b652b4adf843006138fd41d3301f5b037e22e939bb4c2312a,022b02e27f40aabb,0,1
133,133,0,bc182c88845ac68b652b4adf843006138fd41d3301f5b037e22e939bb4c2312a,ac8c2bce43194594,0,1
134,134,0,bc182c88845ac68b652b4adf843006138fd41d3301f5b037e22e939bb4c2312a,f4c540547795aba4,0,1
135,135,0,bc182c88845ac68b652b4adf843006138fd41d3301f5b037e22e939bb4c2312a,7a10341ef6a9117d,0,1
136,136,0,83b1e1f5ac9928258bcc048c6505ae67232b51f45d35efb07bd68609666a122c,9d01e2f38cb72c22,0,1
137,137,0,83b1e1f5ac9928258bcc048c6505ae67232b51f45d35efb07bd68609666a122c,dfd19a3395186694,0,1
138,138,0,83b1e1f5ac9928258bcc048c6505ae67232b51f45d35efb07bd68609666a122c,90f77cbf7e7bb372,0,1
139,139,0,83b1e1f5ac9928258bcc048c6505ae67232b51f45d35efb07bd68609666a122c,d1635a211134183d,0,1
140,140,0,9acff6fcb7a1b5119f7ac922d9add99145c6d3f7688c46ae7c17122cfbf470b7,c8600c21fb52d4a6,0,1
141,141,0,9acff6fcb7a1b5119f7ac922d9add99145c6d3f7688c46ae7c17122cfbf470b7,ec0daf80ccb82bf1,0,1
142,142,0,9acff6fcb7a1b5119f7ac922d9add99145c6d3f7688c46ae7c17122cfbf470b7,548c432dd9c97447,0,1
143,143,0,9acff6fcb7a1b5119f7ac922d9add99145c6d3f7688c46ae7c17122cfbf470b7,a4149935af878dc1,0,1
144,144,0,8dfb0f9529aff503d9ea7197052cd2f050908137f5d83cb47db9f45b5a768394,e675a0a6312033d1,0,1
145,145,0,8dfb0f9529aff503d9ea7197052cd2f050908137f5d83cb47db9f45b5a768394,0df7acba2f8ad4c4,0,1
146,146,0,8dfb0f9529aff503d9ea7197052cd2f050908137f5d83cb47db9f45b5a768394,3448566690616bde,0,1
147,147,0,8dfb0f9529aff503d9ea7197052cd2f050908137f5d83cb47db9f45b5a768394,88ad85ed3f6ff359,0,1
148,148,0,9ac50adaa22fddeb4c5651a2fd20f9fb620719356e87e20bfd299ad8cffc98a3,899bb59b44935ef9,0,1
149,149,0,9ac50adaa22fddeb4c5651a2fd20f9fb620719356e87e20bfd299ad8cffc98a3,75623116efcb63a2,0,1
150,150,0,9ac50adaa22fddeb4c5651a2fd20f9fb620719356e87e20bfd299ad8cffc98a3,ed0e2fdf3448e83e,0,1
151,151,0,9ac50adaa22fddeb4c5651a2fd20f9fb620719356e87e20bfd299ad8cffc98a3,c0aff594a9f0dfb1,0,1
152,152,0,bdd91b268001a80106ed71e7d447ba21288ff47563bd1b84780f4be62772ff8d,0f4b34a0e98e579b,0,1
153,153,0,bdd91b268001a80106ed71e7d447ba21288ff47563bd1b84780f4be62772ff8d,2d3c1bafec81090a,0,1
154,154,0,bdd91b268001a80106ed71e7d447ba21288ff47563bd1b84780f4be62772ff8d,29c16e5ada2f9dbe,0,1
155,155,0,bdd91b268001a80106ed71e7d447ba21288ff47563bd1b84780f4be62772ff8d,d7bbf4455b50a359,0,1
156,156,0,a492f423b0a1c5c0f4128d4829b79f2720e1e3f2de33fbd37d37ee2b92fb8c27,df9f04bf458a6a32,0,1
157,157,0,a492f423b0a1c5c0f4128d4829b79f2720e1e3f2de33fbd37d37ee2b92fb8c27,d047e176ac98e046,0,1
158,158,0,a492f423b0a1c5c0f4128d4829b79f2720e1e3f2de33fbd37d37ee2b92fb8c27,c5193ff31b5994bf,0,1
159,159,0,a492f423b0a1c5c0f4128d4829b79f2720e1e3f2de33fbd37d37ee2b92fb8c27,8015800164d89bbd,0,1
160,160,0,93e3242d6d731fd74e8c311d5fe04540e48959b7ebaccfe977747726cb768eec,845de22be78eb760,0,1
161,161,0,93e3242d6d731fd74e8c311d5fe04540e48959b7ebaccfe977747726cb768eec,21d8bdc6ae2ff114,0,1
162,162,0,93e3242d6d731fd74e8c311d5fe04540e48959b7ebaccfe977747726cb768eec,b1ff4ee467d2f01e,0,1
163,163,0,93e3242d6d731fd74e8c311d5fe04540e48959b7ebaccfe977747726cb768eec,03a3850dc42f4925,0,1
164,164,0,b072dc92c36f2760eba928dd0680b35373d3743a15bb22e7f758f143a4ec4b75,e4f9ed9412b1482f,0,1
165,165,0,b072dc92c36f2760eba928dd0680b35373d3743a15bb22e7f758f143a4ec4b75,cbdfcc7b4fc78704,0,1
166,166,0,b072dc92c36f2760eba928dd0680b35373d3743a15bb22e7f758f143a4ec4b75,e431df49d477ecbe,0,1
167,167,0,b072dc92c36f2760eba928dd0680b35373d3743a15bb22e7f758f143a4ec4b75,ebf8ceb6b424c7c9,0,1
168,168,0,833bbb393ba43d2e31c00d6c30a80eeaa056c0ff0ca273b26c8858f4d677cde3,02a207fab88c3172,0,1
169,169,0,833bbb393ba43d2e31c00d6c30a80eeaa056c0ff0ca273b26c8858f4d677cde3,97f335d7ed9a9127,0,1
170,170,0,833bbb393ba43d2e31c00d6c30a80eeaa056c0ff0ca273b26c8858f4d677cde3,37716ed364ee2eee,0,1
171,171,0,833bbb393ba43d2e31c00d6c30a80eeaa056c0ff0ca273b26c8858f4d677cde3,06e4f6c3493b4e0d,0,1
172,172,0,b3b00d5cfc9db4afbc58bec8933671802e5db8e9221c29ce7d6ee3e14fd0cc33,cacd0160bb1495d7,0,1
173,173,0,b3b00d5cfc9db4afbc58bec8933671802e5db8e9221c29ce7d6ee3e14fd0cc33,e744dda85c2ecbce,0,1
174,174,0,b3b00d5cfc9db4afbc58bec8933671802e5db8e9221c29ce7d6ee3e14fd0cc33,aed23725c28f1aef,0,1
175,175,0,b3b00d5cfc9db4afbc58bec8933671802e5db8e9221c29ce7d6ee3e14fd0cc33,74bc25dc9cdddcc1,0,1
176,176,0,a170eb7a9ce50a42f84e7e5e33f32e174382703dddbe6d02405504486e41cfce,5770150c36b0038c,0,1
177,177,0,a170eb7a9ce50a42f84e7e5e33f32e174382703dddbe6d02405504486e41cfce,4dce4530ff036a05,0,1
178,178,0,a170eb7a9ce50a42f84e7e5e33f32e174382703dddbe6d02405504486e41cfce,c7b3ee6b2f1a1136,0,1
179,179,0,a170eb7a9ce50a42f84e7e5e33f32e174382703dddbe6d02405504486e41cfce,f52db93f3ab00dcd,0,1
180,180,0,9945b05b4d1c1563b088cbb541be4d826fcdc416c8e79e5fc495a660d5b21cf2,018e6cc9137d1a3d,0,1
181,181,0,9945b05b4d1c1563b088cbb541be4d826fcdc416c8e79e5fc495a660d5b21cf2,73943844971dba74,0,1
182,182,0,9945b05b4d1c1563b088cbb541be4d826fcdc416c8e79e5fc495a660d5b21cf2,cc330bf287c776be,0,1
183,183,0,9945b05b4d1c1563b088cbb541be4d826fcdc416c8e79e5fc495a660d5b21cf2,4250a7395ed70e85,0,1
184,184,0,ba9a7735ebd140fcb9fd08407162a3605be15146f7e7f228067bb6ae9752f778,e874cfcc7a7e721f,0,1
185,185,0,ba9a7735ebd140fcb9fd08407162a3605be15146f7e7f228067bb6ae9752f778,40b67dbbbc0e41c2,0,1
186,186,0,ba9a7735ebd140fcb9fd08407162a3605be15146f7e7f228067bb6ae9752f778,73f382761220aa02,0,1
187,187,0,ba9a7735ebd140fcb9fd08407162a3605be15146f7e7f228067bb6ae9752f778,c6a838b2da0da299,0,1
188,188,0,9ffab31d4febaaed2dd5d51e77eeb68a77c292af0caecf37646fa7b83823e377,41b27d82add3110d,0,1
189,189,0,9ffab31d4febaaed2dd5d51e77eeb68a77c292af0caecf37646fa7b83823e377,fa79e7136823b3f6,0,1
190,190,0,9ffab31d4febaaed2dd5d51e77eeb68a77c292af0caecf37646fa7b83823e377,4f384dab0665a923,0,1
191,191,0,9ffab31d4febaaed2dd5d51e77eeb68a77c292af0caecf37646fa7b83823e377,3f028bd7acee595d,0,1
192,192,0,becf65e7c1fba174a8b5f9945248f3d30ad3189d27bfb5efd58925dceb9f573e,06c5468e0210bf9d,0,1
193,193,0,becf65e7c1fba174a8b5f9945248f3d30ad3189d27bfb5efd58925dceb9f573e,144fe7ef628a87da,0,1
194,194,0,becf65e7c1fba174a8b5f9945248f3d30ad3189d27bfb5efd58925dceb9f573e,1eef4ae9756dde60,0,1
195,195,0,becf65e7c1fba174a8b5f9945248f3d30ad3189d27bfb5efd58925dceb9f573e,b755d7f2b8cd5ff9,0,1
196,196,0,9ba4384a05edc1409ad9f52844a67652378a03c53a74ec2300b9a54d89590eb0,516d77ee78ababb4,0,1
197,197,0,9ba4384a05edc1409ad9f52844a67652378a03c53a74ec2300b9a54d89590eb0,ecf37530f54943ee,0,1
198,198,0,9ba4384a05edc1409ad9f52844a67652378a03c53a74ec2300b9a54d89590eb0,eec7c41c1de5f626,0,1
199,199,0,9ba4384a05edc1409ad9f52844a67652378a03c53a74ec2300b9a54d89590eb0,2e85df83e7a6f37d,0,1
200,200,0,b4f1da82e7f176cff13d51553a6e3b5681c2452221e5079975b2b36f72322137,cbcf124a299fad15,0,1
201,201,0,b4f1da82e7f176cff13d51553a6e3b5681c2452221e5079975b2b36f72322137,f7adfde4b918cb50,0,1
202,202,0,b4f1da82e7f176cff13d51553a6e3b5681c2452221e5079975b2b36f72322137,7ceaf9d73ba491ab,0,1
203,203,0,b4f1da82e7f176cff13d51553a6e3b5681c2452221e5079975b2b36f72322137,0283b7a0521c25d9,0,1
204,204,0,952d0844c7436b850b1dc8475a73bf8c2d70e40f37387caece0e8792bdb8bd20,4a6e652214af9b59,0,1
205,205,0,952d0844c7436b850b1dc8475a73bf8c2d70e40f37387caece0e8792bdb8bd20,c4372e5ca3c051ec,0,1
206,206,0,952d0844c7436b850b1dc8475a73bf8c2d70e40f37387caece0e8792bdb8bd20,0d709a91b2a59d00,0,1
207,207,0,952d0844c7436b850b1dc8475a73bf8c2d70e40f37387caece0e8792bdb8bd20,f36e8fe7415b8f2d,0,1
208,208,0,a065a07605c6ce6a7d7cb54fa7da7bfe46439553909d6adb3f1f29911d5b940e,6adc765caa8abc8f,0,1
209,209,0,a065a07605c6ce6a7d7cb54fa7da7bfe46439553909d6adb3f1f29911d5b940e,99e0a78444a24381,0,1
210,210,0,a065a07605c6ce6a7d7cb54fa7da7bfe46439553909d6adb3f1f29911d5b940e,ec844c4ef6cd4dae,0,1
211,211,0,a065a07605c6ce6a7d7cb54fa7da7bfe46439553909d6adb3f1f29911d5b940e,a1d6c2e32210b4a9,0,1
212,212,0,941c9dc64409dbdd2e98c32c84df6de34fe7418f97ee124c67c5ccbe5451e97a,31fdce5ae213b8d0,0,1
213,213,0,941c9dc64409dbdd2e98c32c84df6de34fe7418f97ee124c67c5ccbe5451e97a,753e1cecf0270eb4,0,1
214,214,0,941c9dc64409dbdd2e98c32c84df6de34fe7418f97ee124c67c5ccbe5451e97a,04bd1dbd49e17073,0,1
215,215,0,941c9dc64409dbdd2e98c32c84df6de34fe7418f97ee124c67c5ccbe5451e97a,567363a06e05a605,0,1
216,216,0,964182a762fa1d115def2b64c13fa39657aca78beaae2b709791ef6073e06a76,7fde5be5f2ad3ebe,0,1
217,217,0,964182a762fa1d115def2b64c13fa39657aca78beaae2b709791ef6073e06a76,db56b909caa9c262,0,1
218,218,0,964182a762fa1d115def2b64c13fa39657aca78beaae2b709791ef6073e06a76,7029dab88994f8fc,0,1
219,219,0,964182a762fa1d115def2b64c13fa39657aca78beaae2b709791ef6073e06a76,bbdb902263b93829,0,1
220,220,0,b1fe736454dd40e3eec520811c3b93b61e314fa7b9fe8dc07fbf4cc46da89ecd,c7b6fb2134c31974,0,1
221,221,0,b1fe736454dd40e3eec520811c3b93b61e314fa7b9fe8dc07fbf4cc46da89ecd,324877e9f182e7f2,0,1
222,222,0,b1fe736454dd40e3eec520811c3b93b61e314fa7b9fe8dc07fbf4cc46da89ecd,5e978a2a7d33a3e6,0,1
223,223,0,b1fe736454dd40e3eec520811c3b93b61e314fa7b9fe8dc07fbf4cc46da89ecd,88b85f46e5418269,0,1
224,224,0,b4fe9eb6582563f29983e5de2c59e79056dc194bea1d10e2cf374e2d502d736a,69c5fc8326d4f7ba,0,1
225,225,0,b4fe9eb6582563f29983e5de2c59e79056dc194bea1d10e2cf374e2d502d736a,0ed47557d1e535ea,0,1
226,226,0,b4fe9eb6582563f29983e5de2c59e79056dc194bea1d10e2cf374e2d502d736a,6e5607ce06f789e9,0,1
227,227,0,b4fe9eb6582563f29983e5de2c59e79056dc194bea1d10e2cf374e2d502d736a,c702bb2a26ce7f8d,0,1
228,228,0,83627e0228c7613048dc50c736d70fa3fcdcd3d7314f5f6fa71cabfe68cbfa65,6dc9dc388104a377,0,1
229,229,0,83627e0228c7613048dc50c736d70fa3fcdcd3d7314f5f6fa71cabfe68cbfa65,03b17f9de5f28c78,0,1
230,230,0,83627e0228c7613048dc50c736d70fa3fcdcd3d7314f5f6fa71cabfe68cbfa65,b37915b62332fdfe,0,1
231,231,0,83627e0228c7613048dc50c736d70fa3fcdcd3d7314f5f6fa71cabfe68cbfa65,4fc6a41a6d797f2d,0,1
232,232,0,946051017b8a5b3bb17225faa9bb497ee67e085349491175f681cbba0aee7ce0,09e79a347ba7c199,0,1
233,233,0,946051017b8a5b3bb17225faa9bb497ee67e085349491175f681cbba0aee7ce0,4708b857d2983b6a,0,1
234,234,0,946051017b8a5b3bb17225faa9bb497ee67e085349491175f681cbba0aee7ce0,56ceb40ab472ecf3,0,1
235,235,0,946051017b8a5b3bb17225faa9bb497ee67e085349491175f681cbba0aee7ce0,0c86e314407e46c1,0,1
236,236,0,86c6ba4ca51d64660c6a4e93292453554a30d89e0f7b1a9abf6ca66a5c6fba68,c5f0eb6ce30a3b12,0,1
237,237,0,86c6ba4ca51d64660c6a4e93292453554a30d89e0f7b1a9abf6ca66a5c6fba68,f6faf28cebcb3b3f,0,1
238,238,0,86c6ba4ca51d64660c6a4e93292453554a30d89e0f7b1a9abf6ca66a5c6fba68,a65fd3167fd538e5,0,1
239,239,0,86c6ba4ca51d64660c6a4e93292453554a30d89e0f7b1a9abf6ca66a5c6fba68,dcda51de808a0629,0,1
240,240,0,86fbc8f2ee3b37ed6adf8ba512c178ae6299ec539a1084d66c0d8fa5d4738f9a,7e92dd955fa44e8d,0,1
241,241,0,86fbc8f2ee3b37ed6adf8ba512c178ae6299ec539a1084d66c0d8fa5d4738f9a,ae889292ca107e67,0,1
242,242,0,86fbc8f2ee3b37ed6adf8ba512c178ae6299ec539a1084d66c0d8fa5d4738f9a,073e77505dd3816f,0,1
243,243,0,86fbc8f2ee3b37ed6adf8ba512c178ae6299ec539a1084d66c0d8fa5d4738f9a,6626b8a5325d6361,0,1
244,244,0,b20ea8d985693e8b32ec823537a92950a549704dbd0b40b13446515ec5ddd2b1,aaca2494c9725630,0,1
245,245,0,b20ea8d985693e8b32ec823537a92950a549704dbd0b40b13446515ec5ddd2b1,5958def0791b0c52,0,1
246,246,0,b20ea8d985693e8b32ec823537a92950a549704dbd0b40b13446515ec5ddd2b1,165df63a566536fd,0,1
247,247,0,b20ea8d985693e8b32ec823537a92950a549704dbd0b40b13446515ec5ddd2b1,b7ecdc774f13df61,0,1
248,248,0,903abc3ffd46fd253c092bb6d6711eac962423d863be25ec40c3b82d1ac46791,751e8348a5d1fb56,0,1
249,249,0,903abc3ffd46fd253c092bb6d6711eac962423d863be25ec40c3b82d1ac46791,6b210859ca379946,0,1
250,250,0,903abc3ffd46fd253c092bb6d6711eac962423d863be25ec40c3b82d1ac46791,59f1ce2ba5f1b036,0,1
251,251,0,903abc3ffd46fd253c092bb6d6711eac962423d863be25ec40c3b82d1ac46791,d17c96a19b15704d,0,1
252,252,0,ab0c721a73bd77a2bc0c599263b4e28ce491e2b2c14c92540ffb1a9c3d3ddb10,0a9495ecac41374c,0,1
253,253,0,ab0c721a73bd77a2bc0c599263b4e28ce491e2b2c14c92540ffb1a9c3d3ddb10,8d02d0bdb20e92a5,0,1
254,254,0,ab0c721a73bd77a2bc0c599263b4e28ce491e2b2c14c92540ffb1a9c3d3ddb10,8d4bbba37a8a622c,0,1
255,255,0,ab0c721a73bd77a2bc0c599263b4e28ce491e2b2c14c92540ffb1a9c3d3ddb10,a4bf62bffc3d5c09,0,1
256,256,0,9ab2e17c0ee090b97714d883d17105d2254b0968275b462e85065d4228464ce7,35788e6b6dd4903c,0,1
257,257,0,9ab2e17c0ee090b97714d883d17105d2254b0968275b462e85065d4228464ce7,37a47dc61bc42469,0,1
258,258,0,9ab2e17c0ee090b97714d883d17105d2254b0968275b462e85065d4228464ce7,89e62358b41dc302,0,1
259,259,0,9ab2e17c0ee090b97714d883d17105d2254b0968275b462e85065d4228464ce7,45eebdce584e30d5,0,1
260,260,0,8c633492989a0b8c32f6625c5462c314402ab28878ee2f83ba3735348a27a142,31472dc6499a303d,0,1
261,261,0,8c633492989a0b8c32f6625c5462c314402ab28878ee2f83ba3735348a27a142,2a4932834d478927,0,1
262,262,0,8c633492989a0b8c32f6625c5462c314402ab28878ee2f83ba3735348a27a142,08dbbcbc3958dff0,0,1
263,263,0,8c633492989a0b8c32f6625c5462c314402ab28878ee2f83ba3735348a27a142,9d0907703e874d59,0,1
264,264,0,b74692b1077d3312ea282d94b3b8c0353499f46daf918d5b55b91799722d9ff2,4ba08e8bc11b28ee,0,1
265,265,0,b74692b1077d3312ea282d94b3b8c0353499f46daf918d5b55b91799722d9ff2,7462dae41690d2a4,0,1
266,266,0,b74692b1077d3312ea282d94b3b8c0353499f46daf918d5b55b91799722d9ff2,e732621442ba60a1,0,1
267,267,0,b74692b1077d3312ea282d94b3b8c0353499f46daf918d5b55b91799722d9ff2,31d05919492cc631,0,1
268,268,0,96afd9874f4860c075c9ac2d61d17f042e5a97627e06490e6199cb7139e3131a,28c3462a3a466f4c,0,1
269,269,0,96afd9874f4860c075c9ac2d61d17f042e5a97627e06490e6199cb7139e3131a,c1f4771e114d5402,0,1
270,270,0,96afd9874f4860c075c9ac2d61d17f042e5a97627e06490e6199cb7139e3131a,4285e4512cacec5d,0,1
271,271,0,96afd9874f4860c075c9ac2d61d17f042e5a97627e06490e6199cb7139e3131a,48ccbee08d4962ed,0,1
272,272,0,a8d9ad3b312ee18cc4a8433216c503b4cd2d84b389a5039d4a9e38199a4b0ff0,ac031dcd29b41457,0,1
273,273,0,a8d9ad3b312ee18cc4a8433216c503b4cd2d84b389a5039d4a9e38199a4b0ff0,dab189f5b62f992c,0,1
274,274,0,a8d9ad3b312ee18cc4a8433216c503b4cd2d84b389a5039d4a9e38199a4b0ff0,4ff9b44e99e89daa,0,1
275,275,0,a8d9ad3b312ee18cc4a8433216c503b4cd2d84b389a5039d4a9e38199a4b0ff0,030612f2e19bf569,0,1
276,276,0,87b1aabc18f4ad294f35652ef8b1ad5274a474975fc1af6bd2728de45fa3f6fb,20fe8b86b43593ae,0,1
277,277,0,87b1aabc18f4ad294f35652ef8b1ad5274a474975fc1af6bd2728de45fa3f6fb,7092607e46e95a74,0,1
278,278,0,87b1aabc18f4ad294f35652ef8b1ad5274a474975fc1af6bd2728de45fa3f6fb,58c8c79c8ed39986,0,1
279,279,0,87b1aabc18f4ad294f35652ef8b1ad5274a474975fc1af6bd2728de45fa3f6fb,3187748cdcb59b15,0,1
280,280,0,8b8b7b8bfbb4308b8afbf38b55922974f37f91de44d7183d1336d140357b33ba,2dc0a3684cc21523,0,1
281,281,0,8b8b7b8bfbb4308b8afbf38b55922974f37f91de44d7183d1336d140357b33ba,b9c0a591cd21b4b3,0,1
282,282,0,8b8b7b8bfbb4308b8afbf38b55922974f37f91de44d7183d1336d140357b33ba,0ff0d259981c7952,0,1
283,283,0,8b8b7b8bfbb4308b8afbf38b55922974f37f91de44d7183d1336d140357b33ba,94b52f183d558de1,0,1
284,284,0,847edec91cf8d98322e36014bd7a20e95c41373bd6ef10a150c4a082f2378ccd,4ab58d1f74a6acf2,0,1
285,285,0,847edec91cf8d98322e36014bd7a20e95c41373bd6ef10a150c4a082f2378ccd,d6f583fae92e252e,0,1
286,286,0,847edec91cf8d98322e36014bd7a20e95c41373bd6ef10a150c4a082f2378ccd,df6fc5fa27b14e4b,0,1
287,287,0,847edec91cf8d98322e36014bd7a20e95c41373bd6ef10a150c4a082f2378ccd,d10c2ddfd1ded1d1,0,1
288,288,0,acad0756e72bdbc90f25ea594c80095de3924e313f886530d89281510de4de4b,2e9449aad1cfdf51,0,1
289,289,0,acad0756e72bdbc90f25ea594c80095de3924e313f886530d89281510de4de4b,bc18eb227b89fecf,0,1
290,290,0,acad0756e72bdbc90f25ea594c80095de3924e313f886530d89281510de4de4b,5dccdeac028b6cc8,0,1
291,291,0,acad0756e72bdbc90f25ea594c80095de3924e313f886530d89281510de4de4b,c19b1f38937b7e21,0,1
292,292,0,905ae839c6ed7f305d14c2102123ac692bd9795cfb91be5345966f61912b94f0,97045ebd2806c744,0,1
293,293,0,905ae839c6ed7f305d14c2102123ac692bd9795cfb91be5345966f61912b94f0,8508f76bdcec823a,0,1
294,294,0,905ae839c6ed7f305d14c2102123ac692bd9795cfb91be5345966f61912b94f0,b331ec4f4105230a,0,1
295,295,0,905ae839c6ed7f305d14c2102123ac692bd9795cfb91be5345966f61912b94f0,93dbd4e76ae0b535,0,1
296,296,0,862dc8f40c163417d3766331be246a198dd163cb1618fb5e039eb3efcaca6f7f,ba9001329a57a4f0,0,1
297,297,0,862dc8f40c163417d3766331be246a198dd163cb1618fb5e039eb3efcaca6f7f,0ca611fc8c7249c7,0,1
298,298,0,862dc8f40c163417d3766331be246a198dd163cb1618fb5e039eb3efcaca6f7f,d27b27b08a81491b,0,1
299,299,0,862dc8f40c163417d3766331be246a198dd163cb1618fb5e039eb3efcaca6f7f,0cfeb7639c175a09,0,1
300,300,0,a99100154f71b17186813087663f68a0ccdf59e0daddae667acd7ce3c9a56e1a,9635c484084328ba,0,1
301,301,0,a99100154f71b17186813087663f68a0ccdf59e0daddae667acd7ce3c9a56e1a,ca7d89df3a9e9bd4,0,1
302,302,0,a99100154f71b17186813087663f68a0ccdf59e0daddae667acd7ce3c9a56e1a,0f29d48986f669a2,0,1
303,303,0,a99100154f71b17186813087663f68a0ccdf59e0daddae667acd7ce3c9a56e1a,e82c68302f13b461,0,1
304,304,0,9063468d72d94c8e13e0a83a7acd953caf827b0e649be76854873845f833f447,9856247d8cc66ecb,0,1
305,305,0,9063468d72d94c8e13e0a83a7acd953caf827b0e649be76854873845f833f447,7adf1868d3c68bb1,0,1
306,306,0,9063468d72d94c8e13e0a83a7acd953caf827b0e649be76854873845f833f447,fef65353f7cd79c0,0,1
307,307,0,9063468d72d94c8e13e0a83a7acd953caf827b0e649be76854873845f833f447,8e8d8ef2a8008995,0,1
308,308,0,872271f9502674f4b4ea657c9157ab1ba8c54f0be21a1461b735f071d7f56eb7,0516fc66e10c8161,0,1
309,309,0,872271f9502674f4b4ea657c9157ab1ba8c54f0be21a1461b735f071d7f56eb7,6675bb5b079afb33,0,1
310,310,0,872271f9502674f4b4ea657c9157ab1ba8c54f0be21a1461b735f071d7f56eb7,5876a593c73eb35e,0,1
311,311,0,872271f9502674f4b4ea657c9157ab1ba8c54f0be21a1461b735f071d7f56eb7,71329b4eb162c609,0,1
312,312,0,a1e84dc66743cfe0bbb5566a878381214a6b6406ee9469405f0e1aa3a9ff15e3,3ca9b35e5c1507c8,0,1
313,313,0,a1e84dc66743cfe0bbb5566a878381214a6b6406ee9469405f0e1aa3a9ff15e3,16e7d92670de41f5,0,1
314,314,0,a1e84dc66743cfe0bbb5566a878381214a6b6406ee9469405f0e1aa3a9ff15e3,e22fcc1fa21ce12a,0,1
315,315,0,a1e84dc66743cfe0bbb5566a878381214a6b6406ee9469405f0e1aa3a9ff15e3,2f2e640a9f8e44e1,0,1
316,316,0,93126ebd1a8fe18cc8942a2bb109046ac35171eb53ff4837bd2ced8b943ab764,d8d5ea893ea6572d,0,1
317,317,0,93126ebd1a8fe18cc8942a2bb109046ac35171eb53ff4837bd2ced8b943ab764,86285847d0f2a315,0,1
318,318,0,93126ebd1a8fe18cc8942a2bb109046ac35171eb53ff4837bd2ced8b943ab764,ed76afeb8e0faced,0,1
319,319,0,93126ebd1a8fe18cc8942a2bb109046ac35171eb53ff4837bd2ced8b943ab764,07f3c2e663b21785,0,1
320,320,0,81f63ef10c961bae4d4e4e375f67d3cd4ade2d047d861d2b9474cce94432df2f,8481c1e1566aaddd,0,1
321,321,0,81f63ef10c961bae4d4e4e375f67d3cd4ade2d047d861d2b9474cce94432df2f,029629776026d652,0,1
322,322,0,81f63ef10c961bae4d4e4e375f67d3cd4ade2d047d861d2b9474cce94432df2f,c7a8ff95c55870fa,0,1
323,323,0,81f63ef10c961bae4d4e4e375f67d3cd4ade2d047d861d2b9474cce94432df2f,3187f158bd7648c9,0,1
324,324,0,b2f63f0fab3e292c50b81dfff442b1a8bab124c098cc5e8c73f03e29ae69b642,5620908dd4542913,0,1
325,325,0,b2f63f0fab3e292c50b81dfff442b1a8bab124c098cc5e8c73f03e29ae69b642,ec12ffcad78e8ac3,0,1
326,326,0,b2f63f0fab3e292c50b81dfff442b1a8bab124c098cc5e8c73f03e29ae69b642,26ed5c29d1b734bd,0,1
327,327,0,b2f63f0fab3e292c50b81dfff442b1a8bab124c098cc5e8c73f03e29ae69b642,75d869308f7c6f81,0,1
328,328,0,9820ed5e4b741ba5f0011a535b1e2eea797ddfc83247cb7a0d3e586609f3a24b,b3cbe6faec7272b2,0,1
329,329,0,9820ed5e4b741ba5f0011a535b1e2eea797ddfc83247cb7a0d3e586609f3a24b,d4b861be20b47b52,0,1
330,330,0,9820ed5e4b741ba5f0011a535b1e2eea797ddfc83247cb7a0d3e586609f3a24b,f4fb4c2297332e29,0,1
331,331,0,9820ed5e4b741ba5f0011a535b1e2eea797ddfc83247cb7a0d3e586609f3a24b,34947cd5f0fc6f4d,0,1
332,332,0,a912650055db8588b168899bef41d22502872072196bc77a722109020091e268,158d422fffb81d0a,0,1
333,333,0,a912650055db8588b168899bef41d22502872072196bc77a722109020091e268,317a331903248d5d,0,1
334,334,0,a912650055db8588b168899bef41d22502872072196bc77a722109020091e268,426d9675947c0fce,0,1
335,335,0,a912650055db8588b168899bef41d22502872072196bc77a722109020091e268,a5d82ed27ab70419,0,1
336,336,0,945a9a10dc027fb54e2cc54e09dced4ced47db05acb1368569ec01760b1c45a1,577478daca58800f,0,1
337,337,0,945a9a10dc027fb54e2cc54e09dced4ced47db05acb1368569ec01760b1c45a1,5ed3e24c13fbbe9e,0,1
338,338,0,945a9a10dc027fb54e2cc54e09dced4ced47db05acb1368569ec01760b1c45a1,d245cf90661a7cb0,0,1
339,339,0,945a9a10dc027fb54e2cc54e09dced4ced47db05acb1368569ec01760b1c45a1,11a1dbaa00a64895,0,1
340,340,0,9c922fb186e1347e927bbe4e94bd4a364c4cdba44a954e8e9d4ebde9fea4b4d7,a44b82f7d991168d,0,1
341,341,0,9c922fb186e1347e927bbe4e94bd4a364c4cdba44a954e8e9d4ebde9fea4b4d7,5ee3d6984e04e140,0,1
342,342,0,9c922fb186e1347e927bbe4e94bd4a364c4cdba44a954e8e9d4ebde9fea4b4d7,164789004090844e,0,1
343,343,0,9c922fb186e1347e927bbe4e94bd4a364c4cdba44a954e8e9d4ebde9fea4b4d7,adfe403b08595a29,0,1
344,344,0,ba911b7d5843cede0c9907f89e6452b987f42b275df320843a2449865ef0e36d,32b73b9072a33472,0,1
345,345,0,ba911b7d5843cede0c9907f89e6452b987f42b275df320843a2449865ef0e36d,a16c8d35a0dbe2b7,0,1
346,346,0,ba911b7d5843cede0c9907f89e6452b987f42b275df320843a2449865ef0e36d,85a238d06e803796,0,1
347,347,0,ba911b7d5843cede0c9907f89e6452b987f42b275df320843a2449865ef0e36d,7e2c87618df44939,0,1
348,348,0,a0a30e42e019331f09d67bbad5808ed440912121d123372f9be4703debf10840,6c52bd29727dde49,0,1
349,349,0,a0a30e42e019331f09d67bbad5808ed440912121d123372f9be4703debf10840,7172a95225db3232,0,1
350,350,0,a0a30e42e019331f09d67bbad5808ed440912121d123372f9be4703debf10840,eb2d257f97bd72b9,0,1
351,351,0,a0a30e42e019331f09d67bbad5808ed440912121d123372f9be4703debf10840,7b73c21abed8895d,0,1
352,352,0,8c5dfb8b71c78bf473e9b2021c2eccd75b3e7a03067ce2903739c8a90baf4c28,9d4a26791fe09930,0,1
353,353,0,8c5dfb8b71c78bf473e9b2021c2eccd75b3e7a03067ce2903739c8a90baf4c28,2104cfbae4d42fe1,0,1
354,354,0,8c5dfb8b71c78bf473e9b2021c2eccd75b3e7a03067ce2903739c8a90baf4c28,b6c70f7a6192245c,0,1
355,355,0,8c5dfb8b71c78bf473e9b2021c2eccd75b3e7a03067ce2903739c8a90baf4c28,f8cc98074270c505,0,1
356,356,0,a8d705cef654cefcd8e5c6ca0b36f04dc38ecfa9571461dbce4acf9694a54a8f,2b7101ab5dde6b90,0,1
357,357,0,a8d705cef654cefcd8e5c6ca0b36f04dc38ecfa9571461dbce4acf9694a54a8f,f4ecc48b84848902,0,1
358,358,0,a8d705cef654cefcd8e5c6ca0b36f04dc38ecfa9571461dbce4acf9694a54a8f,02108fd7bc0e27d9,0,1
359,359,0,a8d705cef654cefcd8e5c6ca0b36f04dc38ecfa9571461dbce4acf9694a54a8f,2fd1e38ed1dfba31,0,1
360,360,0,bf6cf8ac6bfebe00bae610880578d43fb0a2df72f34c8bfb631b38afdc55f56d,eb337438404d97ce,0,1
361,361,0,bf6cf8ac6bfebe00bae610880578d43fb0a2df72f34c8bfb631b38afdc55f56d,09473e60c05e7cda,0,1
362,362,0,bf6cf8ac6bfebe00bae610880578d43fb0a2df72f34c8bfb631b38afdc55f56d,1432f5d095139cec,0,1
363,363,0,bf6cf8ac6bfebe00bae610880578d43fb0a2df72f34c8bfb631b38afdc55f56d,3f732a6f73a0eb15,0,1
364,364,0,a196fa8befbbb9065fce122bf3b2e76170f84a75f3d331f869067f4a97fe2bd6,b20f6cd05363a71b,0,1
365,365,0,a196fa8befbbb9065fce122bf3b2e76170f84a75f3d331f869067f4a97fe2bd6,db8628ea95f371c3,0,1
366,366,0,a196fa8befbbb9065fce122bf3b2e76170f84a75f3d331f869067f4a97fe2bd6,f152a52969f35273,0,1
367,367,0,a196fa8befbbb9065fce122bf3b2e76170f84a75f3d331f869067f4a97fe2bd6,007d7fd6351f36fd,0,1
368,368,0,bb2a010c5a136a0cf7fe1a8708b294339c6e59a44acc3e936d1e06db9a57f998,fc2b1ea01108675d,0,1
369,369,0,bb2a010c5a136a0cf7fe1a8708b294339c6e59a44acc3e936d1e06db9a57f998,dfd132cf4efb450d,0,1
370,370,0,bb2a010c5a136a0cf7fe1a8708b294339c6e59a44acc3e936d1e06db9a57f998,b6afaa3bf51cd8c6,0,1
371,371,0,bb2a010c5a136a0cf7fe1a8708b294339c6e59a44acc3e936d1e06db9a57f998,609dddf7d15f6985,0,1
372,372,0,9d030983ee5ec1f112a547adeea286f4433ba7a7522a159dca70605443f72a8c,86e74dcfd44873fa,0,1
373,373,0,9d030983ee5ec1f112a547adeea286f4433ba7a7522a159dca70605443f72a8c,1f8ccbcfae521f0e,0,1
374,374,0,9d030983ee5ec1f112a547adeea286f4433ba7a7522a159dca70605443f72a8c,6bd47fe952fe6096,0,1
375,375,0,9d030983ee5ec1f112a547adeea286f4433ba7a7522a159dca70605443f72a8c,3056c85a308054dd,0,1
376,376,0,82140fe100ab381daa8601f0f378229e4986bad18553952f6b2fca8d87099222,cc294d10e1587fef,0,1
377,377,0,82140fe100ab381daa8601f0f378229e4986bad18553952f6b2fca8d87099222,c97c3352259a7639,0,1
378,378,0,82140fe100ab381daa8601f0f378229e4986bad18553952f6b2fca8d87099222,199fea59db6078b6,0,1
379,379,0,82140fe100ab381daa8601f0f378229e4986bad18553952f6b2fca8d87099222,8f837a77c190c0b9,0,1
380,380,0,b9c4ebd697a0cefd9578285e3792d0eeef53f673c21f67e537de925d66a60f0a,2f614577b5e2a548,0,1
381,381,0,b9c4ebd697a0cefd9578285e3792d0eeef53f673c21f67e537de925d66a60f0a,b9a8544ae5e5dcc2,0,1
382,382,0,b9c4ebd697a0cefd9578285e3792d0eeef53f673c21f67e537de925d66a60f0a,3154efc22a060e53,0,1
383,383,0,b9c4ebd697a0cefd9578285e3792d0eeef53f673c21f67e537de925d66a60f0a,b81cd50087f02841,0,1
384,384,0,8d250d8b877c99d5c7a8961c3b07cec3a91c2159e43e37b63fa5726811b4dffb,79441ecf0f806155,0,1
385,385,0,8d250d8b877c99d5c7a8961c3b07cec3a91c2159e43e37b63fa5726811b4dffb,f4a9caa18b5d6192,0,1
386,386,0,8d250d8b877c99d5c7a8961c3b07cec3a91c2159e43e37b63fa5726811b4dffb,444990e1b153f4d6,0,1
387,387,0,8d250d8b877c99d5c7a8961c3b07cec3a91c2159e43e37b63fa5726811b4dffb,bf7305e96bd7239d,0,1
388,388,0,aaa2c1eec0c92d396d4914d0673770952e993ef3d892f00b7316d0fd80bac0d8,770b49ec7a141ea9,0,1
389,389,0,aaa2c1eec0c92d396d4914d0673770952e993ef3d892f00b7316d0fd80bac0d8,a7e6f843ce6fcaf7,0,1
390,390,0,aaa2c1eec0c92d396d4914d0673770952e993ef3d892f00b7316d0fd80bac0d8,50f06566ba497bec,0,1
391,391,0,aaa2c1eec0c92d396d4914d0673770952e993ef3d892f00b7316d0fd80bac0d8,ab993ee1d1b0a4b1,0,1
392,392,0,a3f7cb193197b64d0f27f975e2120cc4c41154954d1135c97bdc0be76b372596,c373e0dc386915e3,0,1
393,393,0,a3f7cb193197b64d0f27f975e2120cc4c41154954d1135c97bdc0be76b372596,6dec7c279a843895,0,1
394,394,0,a3f7cb193197b64d0f27f975e2120cc4c41154954d1135c97bdc0be76b372596,dffb2d88164ea5fc,0,1
395,395,0,a3f7cb193197b64d0f27f975e2120cc4c41154954d1135c97bdc0be76b372596,9cb4930377834555,0,1
396,396,0,aaeb731e18cfa72480bba9c78fb1ac47c0518937bb66e89fbe3df77e06a49ad1,a90eece60b2892b6,0,1
397,397,0,aaeb731e18cfa72480bba9c78fb1ac47c0518937bb66e89fbe3df77e06a49ad1,d00f491bcf7c9974,0,1
398,398,0,aaeb731e18cfa72480bba9c78fb1ac47c0518937bb66e89fbe3df77e06a49ad1,1b035d01bf0b68ce,0,1
399,399,0,aaeb731e18cfa72480bba9c78fb1ac47c0518937bb66e89fbe3df77e06a49ad1,b26de98c98d3efc5,0,1
400,400,0,8baf106675c18e3d4175cd77314d34e05d04b594cf19b4302e30e455c6a78fe5,23304847ae9fe4f0,0,1
401,401,0,8baf106675c18e3d4175cd77314d34e05d04b594cf19b4302e30e455c6a78fe5,93ac88b2a92a8823,0,1
402,402,0,8baf106675c18e3d4175cd77314d34e05d04b594cf19b4302e30e455c6a78fe5,69a4ecd6e7d03bde,0,1
403,403,0,8baf106675c18e3d4175cd77314d34e05d04b594cf19b4302e30e455c6a78fe5,24e5f31878ced755,0,1
404,404,0,ac9ab1a092fd2fea32713195bc7231172618c7a6347d42a6e85128c75b887f22,e2358df1e395dd01,0,1
405,405,0,ac9ab1a092fd2fea32713195bc7231172618c7a6347d42a6e85128c75b887f22,f91766ddec918a03,0,1
406,406,0,ac9ab1a092fd2fea32713195bc7231172618c7a6347d42a6e85128c75b887f22,8b5925607eefbc7d,0,1
407,407,0,ac9ab1a092fd2fea32713195bc7231172618c7a6347d42a6e85128c75b887f22,bc7183ae6608f5d1,0,1
408,408,0,a17f05abfb0fe47eccbbb4149fa92d0bdfbb6dc321ce8c945bc20db0eb36b621,072cb28ceeb3ae82,0,1
409,409,0,a17f05abfb0fe47eccbbb4149fa92d0bdfbb6dc321ce8c945bc20db0eb36b621,0c2d98f329ad20ba,0,1
410,410,0,a17f05abfb0fe47eccbbb4149fa92d0bdfbb6dc321ce8c945bc20db0eb36b621,a7f1e563aa270c74,0,1
411,411,0,a17f05abfb0fe47eccbbb4149fa92d0bdfbb6dc321ce8c945bc20db0eb36b621,57f4bf49058d5935,0,1
412,412,0,bc813093d6b6c48a64a2d02295cdb58917692d42498f0db2227e4f5b7ee4542b,e88c4e3da98c8e4c,0,1
413,413,0,bc813093d6b6c48a64a2d02295cdb58917692d42498f0db2227e4f5b7ee4542b,6542be2c65e31864,0,1
414,414,0,bc813093d6b6c48a64a2d02295cdb58917692d42498f0db2227e4f5b7ee4542b,44fe11dae3148a17,0,1
415,415,0,bc813093d6b6c48a64a2d02295cdb58917692d42498f0db2227e4f5b7ee4542b,7e27f0dfd5a0fe85,0,1
416,416,0,80447030a6203914fef0c67576bb1eddaf4ba15ee07e28154992afbae5de9c67,d0b495f9282ddd33,0,1
417,417,0,80447030a6203914fef0c67576bb1eddaf4ba15ee07e28154992afbae5de9c67,29317384c3b6ddfb,0,1
418,418,0,80447030a6203914fef0c67576bb1eddaf4ba15ee07e28154992afbae5de9c67,846d6cd70db043da,0,1
419,419,0,80447030a6203914fef0c67576bb1eddaf4ba15ee07e28154992afbae5de9c67,51236d6bc90c813d,0,1
420,420,0,8b47db92d98f4e0320437dd9a0f910b696bc46b464df48a80b298c103030706b,91adb3a9440b4526,0,1
421,421,0,8b47db92d98f4e0320437dd9a0f910b696bc46b464df48a80b298c103030706b,4db0f19242b496e8,0,1
422,422,0,8b47db92d98f4e0320437dd9a0f910b696bc46b464df48a80b298c103030706b,d42a277edaf27e44,0,1
423,423,0,8b47db92d98f4e0320437dd9a0f910b696bc46b464df48a80b298c103030706b,289c04650c0e2201,0,1
424,424,0,80f58cef1aa21f4bf81f18ba510679268ffe77ea760dc7da8c9bed739d53761a,bb78dd6eae630f7f,0,1
425,425,0,80f58cef1aa21f4bf81f18ba510679268ffe77ea760dc7da8c9bed739d53761a,a8147e077a85d2f5,0,1
426,426,0,80f58cef1aa21f4bf81f18ba510679268ffe77ea760dc7da8c9bed739d53761a,e6397ba75df54992,0,1
427,427,0,80f58cef1aa21f4bf81f18ba510679268ffe77ea760dc7da8c9bed739d53761a,c072f19b49dbe2d1,0,1
428,428,0,a6a76f9539680badd9c5235b314ba97f6486e28740cdc4caa78c290e95347747,6d089f059bbec204,0,1
429,429,0,a6a76f9539680badd9c5235b314ba97f6486e28740cdc4caa78c290e95347747,1512fb262d623d69,0,1
430,430,0,a6a76f9539680badd9c5235b314ba97f6486e28740cdc4caa78c290e95347747,d60e0c0c083194d0,0,1
431,431,0,a6a76f9539680badd9c5235b314ba97f6486e28740cdc4caa78c290e95347747,d2f84558f731af01,0,1
432,432,0,9701dec9207ebb854c488c939d45ddd9bdc7c3f245db36b046726d75bf1b507d,649e608a5d18f81f,0,1
433,433,0,9701dec9207ebb854c488c939d45ddd9bdc7c3f245db36b046726d75bf1b507d,5be3b06e57ee7ff1,0,1
434,434,0,9701dec9207ebb854c488c939d45ddd9bdc7c3f245db36b046726d75bf1b507d,586ecab9ceb7d931,0,1
435,435,0,9701dec9207ebb854c488c939d45ddd9bdc7c3f245db36b046726d75bf1b507d,b5d0169ca9f6e565,0,1
436,436,0,97e315268e1b67cf63e78e1b6020a2a5404d2c7e8d5f4e8a4d8205e220e9f3ad,fe95d28cdac4a39b,0,1
437,437,0,97e315268e1b67cf63e78e1b6020a2a5404d2c7e8d5f4e8a4d8205e220e9f3ad,5323b302e1476126,0,1
438,438,0,97e315268e1b67cf63e78e1b6020a2a5404d2c7e8d5f4e8a4d8205e220e9f3ad,e2ee2ca9709431e5,0,1
439,439,0,97e315268e1b67cf63e78e1b6020a2a5404d2c7e8d5f4e8a4d8205e220e9f3ad,a1dd7e04937b80e9,0,1
440,440,0,a399ee55380f5f1a9314c30b011a92cb1d74370078212b6f5f63658d89023f16,9bbba2b9c9311232,0,1
441,441,0,a399ee55380f5f1a9314c30b011a92cb1d74370078212b6f5f63658d89023f16,0d6cdba24fc3e3bd,0,1
442,442,0,a399ee55380f5f1a9314c30b011a92cb1d74370078212b6f5f63658d89023f16,be0ad8fdaeb64e62,0,1
443,443,0,a399ee55380f5f1a9314c30b011a92cb1d74370078212b6f5f63658d89023f16,f3e6d87164a8c7e9,0,1
444,444,0,a743f04a65279331868ba26acb8155229e9b3d9e51c53cfcb0ecd829e8da9e84,a5450406d871e7c6,0,1
445,445,0,a743f04a65279331868ba26acb8155229e9b3d9e51c53cfcb0ecd829e8da9e84,5172fab17e34b202,0,1
446,446,0,a743f04a65279331868ba26acb8155229e9b3d9e51c53cfcb0ecd829e8da9e84,b5cf970447a041b2,0,1
447,447,0,a743f04a65279331868ba26acb8155229e9b3d9e51c53cfcb0ecd829e8da9e84,58faf01caa7799c5,0,1
448,448,0,bbf5202c4c52ca2eedbe92935771ad0527b5b50f2b06fd787330acaaeec3aae2,d3495880d0c328c9,0,1
449,449,0,bbf5202c4c52ca2eedbe92935771ad0527b5b50f2b06fd787330acaaeec3aae2,f6d4841e00ec2eb8,0,1
450,450,0,bbf5202c4c52ca2eedbe92935771ad0527b5b50f2b06fd787330acaaeec3aae2,68fc4091b1a6c6fa,0,1
451,451,0,bbf5202c4c52ca2eedbe92935771ad0527b5b50f2b06fd787330acaaeec3aae2,8cc9e4a6520fc2e5,0,1
452,452,0,92762158244aff9908d9ccf9f5553fd6679b3b52de9669ed821d7eaae14783ce,44aa81d35645d161,0,1
453,453,0,92762158244aff9908d9ccf9f5553fd6679b3b52de9669ed821d7eaae14783ce,3f3ca38a79bcd979,0,1
454,454,0,92762158244aff9908d9ccf9f5553fd6679b3b52de9669ed821d7eaae14783ce,21795b17941b370d,0,1
455,455,0,92762158244aff9908d9ccf9f5553fd6679b3b52de9669ed821d7eaae14783ce,74534a323404afdd,0,1
456,456,0,8ef546db6a61cc24477ea6f838b972244e2126328987a866c85f8d8b8728a1eb,a0b58eeac9497db7,0,1
457,457,0,8ef546db6a61cc24477ea6f838b972244e2126328987a866c85f8d8b8728a1eb,1ebf60d4f0adade4,0,1
458,458,0,8ef546db6a61cc24477ea6f838b972244e2126328987a866c85f8d8b8728a1eb,4755c37755350cce,0,1
459,459,0,8ef546db6a61cc24477ea6f838b972244e2126328987a866c85f8d8b8728a1eb,99ff52241a846e49,0,1
460,460,0,a445fae0a513f85e4e551a9e878860801fce23253ee41d9552b35c29b7decbe9,6bfcaaaf9f339b10,0,1
461,461,0,a445fae0a513f85e4e551a9e878860801fce23253ee41d9552b35c29b7decbe9,b796697b4adcd9e6,0,1
462,462,0,a445fae0a513f85e4e551a9e878860801fce23253ee41d9552b35c29b7decbe9,73c1e287557eb841,0,1
463,463,0,a445fae0a513f85e4e551a9e878860801fce23253ee41d9552b35c29b7decbe9,24338656db62af71,0,1
464,464,0,9af2e76ac084ad5c30e042b0cceb34c555c1cddf85247e2ee7b56ae060178c9e,244e9d1c1f657ee2,0,1
465,465,0,9af2e76ac084ad5c30e042b0cceb34c555c1cddf85247e2ee7b56ae060178c9e,6615e1914c648472,0,1
466,466,0,9af2e76ac084ad5c30e042b0cceb34c555c1cddf85247e2ee7b56ae060178c9e,d78514e1d1b1fa13,0,1
467,467,0,9af2e76ac084ad5c30e042b0cceb34c555c1cddf85247e2ee7b56ae060178c9e,7a1fc8a5075fa225,0,1
468,468,0,8f17592fbaaeb76d5a9eb4148b351abac44d737d3471020ab740dce6c2b3b9ea,010611e17958aa72,0,1
469,469,0,8f17592fbaaeb76d5a9eb4148b351abac44d737d3471020ab740dce6c2b3b9ea,a9b8277ca4c473f8,0,1
470,470,0,8f17592fbaaeb76d5a9eb4148b351abac44d737d3471020ab740dce6c2b3b9ea,97d37bed943acd4a,0,1
471,471,0,8f17592fbaaeb76d5a9eb4148b351abac44d737d3471020ab740dce6c2b3b9ea,3ab5210356e74f59,0,1
472,472,0,bbba75cfa1cf4628fa0496a4a67dc82edb3eb9d77a076713a2d3e11868a1494f,a32cd7330d42070c,0,1
473,473,0,bbba75cfa1cf4628fa0496a4a67dc82edb3eb9d77a076713a2d3e11868a1494f,747e24a1fbb383aa,0,1
474,474,0,bbba75cfa1cf4628fa0496a4a67dc82edb3eb9d77a076713a2d3e11868a1494f,7931e8060756ade7,0,1
475,475,0,bbba75cfa1cf4628fa0496a4a67dc82edb3eb9d77a076713a2d3e11868a1494f,b6ed755df49ae8f1,0,1
476,476,0,87ae8e2a41c7ec34d8a8f3d700363e7f3cd71e60586fe59de3dc1124b29ccf39,5d58acd1282d795a,0,1
477,477,0,87ae8e2a41c7ec34d8a8f3d700363e7f3cd71e60586fe59de3dc1124b29ccf39,50408e2cbeceb223,0,1
478,478,0,87ae8e2a41c7ec34d8a8f3d700363e7f3cd71e60586fe59de3dc1124b29ccf39,579dcd43673b02ed,0,1
479,479,0,87ae8e2a41c7ec34d8a8f3d700363e7f3cd71e60586fe59de3dc1124b29ccf39,1462f385f3ae5ddd,0,1
480,480,0,bba9bee8f6c36ed733c487f19e7a91e94b265a8b19e9bc5ecc13111d742e72e1,7413be652569205f,0,1
481,481,0,bba9bee8f6c36ed733c487f19e7a91e94b265a8b19e9bc5ecc13111d742e72e1,c8e6e05eeb9d7cdb,0,1
482,482,0,bba9bee8f6c36ed733c487f19e7a91e94b265a8b19e9bc5ecc13111d742e72e1,f29285161887cb45,0,1
483,483,0,bba9bee8f6c36ed733c487f19e7a91e94b265a8b19e9bc5ecc13111d742e72e1,2c37e382547175e1,0,1
484,484,0,ab3fa6e67abfe2555dc6faf3cfe0e6992a963e13f481071635df1d9774c666a5,fe7c6c00ebcf151b,0,1
485,485,0,ab3fa6e67abfe2555dc6faf3cfe0e6992a963e13f481071635df1d9774c666a5,b9a7f61a0678eb3c,0,1
486,486,0,ab3fa6e67abfe2555dc6faf3cfe0e6992a963e13f481071635df1d9774c666a5,9cf3394d24883bc7,0,1
487,487,0,ab3fa6e67abfe2555dc6faf3cfe0e6992a963e13f481071635df1d9774c666a5,eb76c36f177d95dd,0,1
488,488,0,9bb4144acfc662e72cdcfec992e6858235dc3201790bd4d5fd49e16be7d9f119,97895e798fe123cc,0,1
489,489,0,9bb4144acfc662e72cdcfec992e6858235dc3201790bd4d5fd49e16be7d9f119,7a3d9798d15a64d2,0,1
490,490,0,9bb4144acfc662e72cdcfec992e6858235dc3201790bd4d5fd49e16be7d9f119,874e742eb888c833,0,1
491,491,0,9bb4144acfc662e72cdcfec992e6858235dc3201790bd4d5fd49e16be7d9f119,aa47fd5e6765fcd5,0,1
492,492,0,aaa2be3559bed43844bc89d3a302c21fdebf9551029f930e10c42930b34d974e,996707f3cf5f63ba,0,1
493,493,0,aaa2be3559bed43844bc89d3a302c21fdebf9551029f930e10c42930b34d974e,68e0812fc87c6954,0,1
494,494,0,aaa2be3559bed43844bc89d3a302c21fdebf9551029f930e10c42930b34d974e,a566632ee9b8fbac,0,1
495,495,0,aaa2be3559bed43844bc89d3a302c21fdebf9551029f930e10c42930b34d974e,e74663f352282dd9,0,1
496,496,0,929fd3f18cb04ebbd1e08ba42c76557f55b242ae02dd1b994dbee8ec1015d803,41a16749937f3b34,0,1
497,497,0,929fd3f18cb04ebbd1e08ba42c76557f55b242ae02dd1b994dbee8ec1015d803,ab2bd09e804c3bac,0,1
498,498,0,929fd3f18cb04ebbd1e08ba42c76557f55b242ae02dd1b994dbee8ec1015d803,988f9be7d68792bf,0,1
499,499,0,929fd3f18cb04ebbd1e08ba42c76557f55b242ae02dd1b994dbee8ec1015d803,1c2b7d9aac7d4555,0,1
500,500,0,8513fa1b46ca8febcd1614e7a4686b82fc5972a3038880e1fec48d21ddf00919,f84340c5cb913d22,0,1
501,501,0,8513fa1b46ca8febcd1614e7a4686b82fc5972a3038880e1fec48d21ddf00919,70c9f9408aa9fd7b,0,1
502,502,0,8513fa1b46ca8febcd1614e7a4686b82fc5972a3038880e1fec48d21ddf00919,72e9b2cd0c942308,0,1
503,503,0,8513fa1b46ca8febcd1614e7a4686b82fc5972a3038880e1fec48d21ddf00919,dd720d318fcbf949,0,1
504,504,0,b7efc7c3655b56e046747a268c4fb9c322cfddef79afc5bb47b842d2a1698f2c,feaa6e3425d1078b,0,1
505,505,0,b7efc7c3655b56e046747a268c4fb9c322cfddef79afc5bb47b842d2a1698f2c,99d8bb4075424daa,0,1
506,506,0,b7efc7c3655b56e046747a268c4fb9c322cfddef79afc5bb47b842d2a1698f2c,c01ba80837177db2,0,1
507,507,0,b7efc7c3655b56e046747a268c4fb9c322cfddef79afc5bb47b842d2a1698f2c,d7f15362d85fc8a1,0,1
508,508,0,91bae5a2cd4f56987d513375b33cbf44ac61b75b0435adbf6634c2a36a8d93bf,41d61625e72868b3,0,1
509,509,0,91bae5a2cd4f56987d513375b33cbf44ac61b75b0435adbf6634c2a36a8d93bf,870111c0c54e9a3f,0,1
510,510,0,91bae5a2cd4f56987d513375b33cbf44ac61b75b0435adbf6634c2a36a8d93bf,98900fbb84b1237f,0,1
511,511,0,91bae5a2cd4f56987d513375b33cbf44ac61b75b0435adbf6634c2a36a8d93bf,076adaa6c3e3f7ed,0,1
512,512,1,a746a041cb97dcac85345226743be358e89f1c36f292992e3fc75602a9275897,c39df231645e2e62,0,1
513,513,0,a746a041cb97dcac85345226743be358e89f1c36f292992e3fc75602a9275897,dda3f59ef7bbf344,0,1
514,514,0,a746a041cb97dcac85345226743be358e89f1c36f292992e3fc75602a9275897,34f196854b421de2,0,1
515,515,0,a746a041cb97dcac85345226743be358e89f1c36f292992e3fc75602a9275897,196af2b345a75d89,0,1
516,516,0,9199b6d806e28f13b94c0260da8c6409c105e7db7c9c50e9bddd8dc20831becb,22fd3ccdaecc8abe,0,1
517,517,0,9199b6d806e28f13b94c0260da8c6409c105e7db7c9c50e9bddd8dc20831becb,fdb5ac20daed8635,0,1
518,518,0,9199b6d806e28f13b94c0260da8c6409c105e7db7c9c50e9bddd8dc20831becb,fdc9b156c5432c66,0,1
519,519,0,9199b6d806e28f13b94c0260da8c6409c105e7db7c9c50e9bddd8dc20831becb,353be9d3820562e5,0,1
520,520,0,82364c07786a4389f6ae3c810a0113fb8b328b3490e0a4d9f45f6a916423423c,1ac7dc2e644a2ca1,0,1
521,521,0,82364c07786a4389f6ae3c810a0113fb8b328b3490e0a4d9f45f6a916423423c,7499494f6c38f917,0,1
522,522,0,82364c07786a4389f6ae3c810a0113fb8b328b3490e0a4d9f45f6a916423423c,e91ae495406ae3fc,0,1
523,523,0,82364c07786a4389f6ae3c810a0113fb8b328b3490e0a4d9f45f6a916423423c,c8f147601b6d9989,0,1
524,524,0,a425c0d15721f1e647a113d8ee51a166de5c40909c093e726281742a2abeb0aa,9026315b0640329d,0,1
525,525,0,a425c0d15721f1e647a113d8ee51a166de5c40909c093e726281742a2abeb0aa,970a393edbe7a083,0,1
526,526,0,a425c0d15721f1e647a113d8ee51a166de5c40909c093e726281742a2abeb0aa,d37d8c1043b1bbbd,0,1
527,527,0,a425c0d15721f1e647a113d8ee51a166de5c40909c093e726281742a2abeb0aa,91c2561ee0326c41,0,1
528,528,0,9c3855bf2686649858f0abc4d5631cb87df187e9ae6b710cbc4698ac31164c65,dfc88050813c756f,0,1
529,529,0,9c3855bf2686649858f0abc4d5631cb87df187e9ae6b710cbc4698ac31164c65,9b2507092cd14cd1,0,1
530,530,0,9c3855bf2686649858f0abc4d5631cb87df187e9ae6b710cbc4698ac31164c65,3c42c4268956fa2f,0,1
531,531,0,9c3855bf2686649858f0abc4d5631cb87df187e9ae6b710cbc4698ac31164c65,678f84ea8b03a425,0,1
532,532,0,8dbea7765875caccdb42dcd31a2d03174ad03293656e6dbc8061b1b495072404,66858a771bc885e2,0,1
533,533,0,8dbea7765875caccdb42dcd31a2d03174ad03293656e6dbc8061b1b495072404,4e7c903909023a7b,0,1
534,534,0,8dbea7765875caccdb42dcd31a2d03174ad03293656e6dbc8061b1b495072404,550d7d54542e8146,0,1
535,535,0,8dbea7765875caccdb42dcd31a2d03174ad03293656e6dbc8061b1b495072404,19266164fdaa1c39,0,1
536,536,0,a60d669b9ba5487d8a0d489974266842ec6145d670253a6649d4939513717765,1d38c6ab23d50f1a,0,1
537,537,0,a60d669b9ba5487d8a0d489974266842ec6145d670253a6649d4939513717765,308ed67597e18fbe,0,1
538,538,0,a60d669b9ba5487d8a0d489974266842ec6145d670253a6649d4939513717765,a632688c3519623d,0,1
539,539,0,a60d669b9ba5487d8a0d489974266842ec6145d670253a6649d4939513717765,3353ae1a6ee57db1,0,1
540,540,0,8f092503aac2ac4702d5fdf778cf8cb890172a650e0207500a4b26132288cde1,e8c0b458cb3b42db,0,1
541,541,0,8f092503aac2ac4702d5fdf778cf8cb890172a650e0207500a4b26132288cde1,3db676a6c94c0b52,0,1
542,542,0,8f092503aac2ac4702d5fdf778cf8cb890172a650e0207500a4b26132288cde1,2024e0a92d8d8601,0,1
543,543,0,8f092503aac2ac4702d5fdf778cf8cb890172a650e0207500a4b26132288cde1,be12a5d9d966b065,0,1
544,544,0,835ede66b1a740faba7f83510135c8b3119b6b6384fcd6bb3f2cdcef3ff110c3,4216642e9912b051,0,1
545,545,0,835ede66b1a740faba7f83510135c8b3119b6b6384fcd6bb3f2cdcef3ff110c3,665ca40e6ba28637,0,1
546,546,0,835ede66b1a740faba7f83510135c8b3119b6b6384fcd6bb3f2cdcef3ff110c3,a6ee8ec8a9c92b92,0,1
547,547,0,835ede66b1a740faba7f83510135c8b3119b6b6384fcd6bb3f2cdcef3ff110c3,e2354355c0a490f1,0,1
548,548,0,87b620462abe02b9c8e3b60e03fcd8c3933cefe59d21179007dedab8f6f60527,1d31f31eefbfab40,0,1
549,549,0,87b620462abe02b9c8e3b60e03fcd8c3933cefe59d21179007dedab8f6f60527,0ae04070a654e809,0,1
550,550,0,87b620462abe02b9c8e3b60e03fcd8c3933cefe59d21179007dedab8f6f60527,87b31144c864d250,0,1
551,551,0,87b620462abe02b9c8e3b60e03fcd8c3933cefe59d21179007dedab8f6f60527,5f02e58d667b7ac1,0,1
552,552,0,a2a39851adeeb106b959b1d58f92e0d1cf7185dbe5d991b2331b6665698510f0,cd13ac808ac1fe5d,0,1
553,553,0,a2a39851adeeb106b959b1d58f92e0d1cf7185dbe5d991b2331b6665698510f0,dd6b3f21c6d6d988,0,1
554,554,0,a2a39851adeeb106b959b1d58f92e0d1cf7185dbe5d991b2331b6665698510f0,c3088ffcf73b34fc,0,1
555,555,0,a2a39851adeeb106b959b1d58f92e0d1cf7185dbe5d991b2331b6665698510f0,9d407d5462046de1,0,1
556,556,0,8ef8d9008cf028c9a5fd93697d1fbcd9b550236939b88d067bab2bb4f28889b0,c31b3fc0706dc713,0,1
557,557,0,8ef8d9008cf028c9a5fd93697d1fbcd9b550236939b88d067bab2bb4f28889b0,09e884b9a7f73cc9,0,1
558,558,0,8ef8d9008cf028c9a5fd93697d1fbcd9b550236939b88d067bab2bb4f28889b0,e4a06f6f1d5b7be0,0,1
559,559,0,8ef8d9008cf028c9a5fd93697d1fbcd9b550236939b88d067bab2bb4f28889b0,608d77b58a19c545,0,1
560,560,0,8574ae0baf822784591b0ce619aba8178801fd1ff10ddabf4623a55c4303de66,8b0749f1ab8d9a9d,0,1
561,561,0,8574ae0baf822784591b0ce619aba8178801fd1ff10ddabf4623a55c4303de66,4d899ba7dba18ef3,0,1
562,562,0,8574ae0baf822784591b0ce619aba8178801fd1ff10ddabf4623a55c4303de66,0f08a196a666d8cc,0,1
563,563,0,8574ae0baf822784591b0ce619aba8178801fd1ff10ddabf4623a55c4303de66,93140f31009b1f71,0,1
564,564,0,8320a2a66803312ff1ab7376e6a670f74777e290a5e22eba86be601b80e7ad1e,9b3df8be96c9bfa5,0,1
565,565,0,8320a2a66803312ff1ab7376e6a670f74777e290a5e22eba86be601b80e7ad1e,60b11d9c96c40aad,0,1
566,566,0,8320a2a66803312ff1ab7376e6a670f74777e290a5e22eba86be601b80e7ad1e,0d91114f2dd4d5de,0,1
567,567,0,8320a2a66803312ff1ab7376e6a670f74777e290a5e22eba86be601b80e7ad1e,21e441f5d0752ea1,0,1
568,568,0,b1ba7e05fb0eae9d00940aca46bad96d95d23926f0923ec0580a5abc0a8d64e3,e815d5986730d89a,0,1
569,569,0,b1ba7e05fb0eae9d00940aca46bad96d95d23926f0923ec0580a5abc0a8d64e3,fd5bb08ff8bf8011,0,1
570,570,0,b1ba7e05fb0eae9d00940aca46bad96d95d23926f0923ec0580a5abc0a8d64e3,667bc0c23aa5c462,0,1
571,571,0,b1ba7e05fb0eae9d00940aca46bad96d95d23926f0923ec0580a5abc0a8d64e3,f48cc016654504c1,0,1
572,572,0,9a71c05903f60496b48d6c488b440f982ab45c7710476d4ffa90a03337423751,ef0e65676eced58f,0,1
573,573,0,9a71c05903f60496b48d6c488b440f982ab45c7710476d4ffa90a03337423751,5d7447a50947eee2,0,1
574,574,0,9a71c05903f60496b48d6c488b440f982ab45c7710476d4ffa90a03337423751,78b5e701d8067d61,0,1
575,575,0,9a71c05903f60496b48d6c488b440f982ab45c7710476d4ffa90a03337423751,b97570dfa07e5d8d,0,1
576,576,0,b041174e899d19e9bb657b9e5990eba22d420863dfcdf208eb4fd01b57ca1e9c,b69b5d6253502900,0,1
577,577,0,b041174e899d19e9bb657b9e5990eba22d420863dfcdf208eb4fd01b57ca1e9c,037c490f649c4ba9,0,1
578,578,0,b041174e899d19e9bb657b9e5990eba22d420863dfcdf208eb4fd01b57ca1e9c,c726b1503d5a501a,0,1
579,579,0,b041174e899d19e9bb657b9e5990eba22d420863dfcdf208eb4fd01b57ca1e9c,69206fc09a038e59,0,1
580,580,0,9897d61d99726530db99ba537d1bcfb818bb2a23e06889e7c30b9505fb7565fb,19f022d11236b12d,0,1
581,581,0,9897d61d99726530db99ba537d1bcfb818bb2a23e06889e7c30b9505fb7565fb,f2b6e208ee3a2d54,0,1
582,582,0,9897d61d99726530db99ba537d1bcfb818bb2a23e06889e7c30b9505fb7565fb,8aec42eccc05095f,0,1
583,583,0,9897d61d99726530db99ba537d1bcfb818bb2a23e06889e7c30b9505fb7565fb,9798b99172e8820d,0,1
584,584,0,a5dbd86aefd8b56b5f54a566e31313bdba36911f6ba7080c6bb49ae4899b8e6e,45d7099a79dea6dd,0,1
585,585,0,a5dbd86aefd8b56b5f54a566e31313bdba36911f6ba7080c6bb49ae4899b8e6e,104fb3fbc61042b4,0,1
586,586,0,a5dbd86aefd8b56b5f54a566e31313bdba36911f6ba7080c6bb49ae4899b8e6e,397853ead80bf2d7,0,1
587,587,0,a5dbd86aefd8b56b5f54a566e31313bdba36911f6ba7080c6bb49ae4899b8e6e,0ca64e99b86be919,0,1
588,588,0,9fdd42bd3228fc2c37746fd3ca10450c404e58f7eb0d9291aa982b0e2c31ee49,1df3d8beca5d99db,0,1
589,589,0,9fdd42bd3228fc2c37746fd3ca10450c404e58f7eb0d9291aa982b0e2c31ee49,e7911607c454dd18,0,1
590,590,0,9fdd42bd3228fc2c37746fd3ca10450c404e58f7eb0d9291aa982b0e2c31ee49,dfa6aedfa0a9d0c3,0,1
591,591,0,9fdd42bd3228fc2c37746fd3ca10450c404e58f7eb0d9291aa982b0e2c31ee49,d6ad1bf7561bdba5,0,1
592,592,0,92d80ba26448995eb0efc5f56d8343a948597e0a4c73f9dfaab5eed1f015e50b,bdc8c8c766a52afa,0,1
593,593,0,92d80ba26448995eb0efc5f56d8343a948597e0a4c73f9dfaab5eed1f015e50b,3010e5d6f8896c5d,0,1
594,594,0,92d80ba26448995eb0efc5f56d8343a948597e0a4c73f9dfaab5eed1f015e50b,7671d99127592dd6,0,1
595,595,0,92d80ba26448995eb0efc5f56d8343a948597e0a4c73f9dfaab5eed1f015e50b,343f144cbd42bbf9,0,1
596,596,0,a8bbe3f22212f6be4bc82f192f5f62dfcc4af9e2e11cbc9e4156f7d8b03031c1,30a20853cbf62eec,0,1
597,597,0,a8bbe3f22212f6be4bc82f192f5f62dfcc4af9e2e11cbc9e4156f7d8b03031c1,8949b0d7ef1a7202,0,1
598,598,0,a8bbe3f22212f6be4bc82f192f5f62dfcc4af9e2e11cbc9e4156f7d8b03031c1,92778c3470d41955,0,1
599,599,0,a8bbe3f22212f6be4bc82f192f5f62dfcc4af9e2e11cbc9e4156f7d8b03031c1,7a99122645d01b49,0,1
600,600,0,a7d14a1653987f8e1073750ba4771cf7ab189ef4a57bde906bef315333c78968,95c2c1b6afa3f70d,0,1
601,601,0,a7d14a1653987f8e1073750ba4771cf7ab189ef4a57bde906bef315333c78968,fb9fce32507e9a12,0,1
602,602,0,a7d14a1653987f8e1073750ba4771cf7ab189ef4a57bde906bef315333c78968,d0a7a80f8b77ad55,0,1
603,603,0,a7d14a1653987f8e1073750ba4771cf7ab189ef4a57bde906bef315333c78968,7d6f48444fc7dd15,0,1
604,604,0,af3b921dae9802e5c32bbe0b4fa815e548691736b1d210527d5e391cae78bbd3,fb46faf498f413d2,0,1
605,605,0,af3b921dae9802e5c32bbe0b4fa815e548691736b1d210527d5e391cae78bbd3,793d3887479f5233,0,1
606,606,0,af3b921dae9802e5c32bbe0b4fa815e548691736b1d210527d5e391cae78bbd3,838c0c0d1bef6a82,0,1
607,607,0,af3b921dae9802e5c32bbe0b4fa815e548691736b1d210527d5e391cae78bbd3,71fe19ca68528be5,0,1
608,608,0,882c502a87d98b3e479971d17391adf986f5b23644bd3dc1efc642c6b7efd588,ef38ee25d0aece08,0,1
609,609,0,882c502a87d98b3e479971d17391adf986f5b23644bd3dc1efc642c6b7efd588,097bdea52f7918d5,0,1
610,610,0,882c502a87d98b3e479971d17391adf986f5b23644bd3dc1efc642c6b7efd588,1691e3ccca8cf7d6,0,1
611,611,0,882c502a87d98b3e479971d17391adf986f5b23644bd3dc1efc642c6b7efd588,a7401975b849dcf5,0,1
612,612,0,a94f53a5c8162c69ad79bd39f8a1607e0aa9a866c86f291a6c34e64fcb572eed,a7a815f2d07dd4c3,0,1
613,613,0,a94f53a5c8162c69ad79bd39f8a1607e0aa9a866c86f291a6c34e64fcb572eed,4a084b8d6ce89612,0,1
614,614,0,a94f53a5c8162c69ad79bd39f8a1607e0aa9a866c86f291a6c34e64fcb572eed,cbdd1e75389c7abe,0,1
615,615,0,a94f53a5c8162c69ad79bd39f8a1607e0aa9a866c86f291a6c34e64fcb572eed,7cd19be1540a3411,0,1
616,616,0,b9ffc678019b4d391906ea9edc047cee1621d6e5cfa48df54edbc7e742ffd063,9fb589ce8b8e99e2,0,1
617,617,0,b9ffc678019b4d391906ea9edc047cee1621d6e5cfa48df54edbc7e742ffd063,83bcbd226c4daf61,0,1
618,618,0,b9ffc678019b4d391906ea9edc047cee1621d6e5cfa48df54edbc7e742ffd063,11abf7ed634263f7,0,1
619,619,0,b9ffc678019b4d391906ea9edc047cee1621d6e5cfa48df54edbc7e742ffd063,96346813a5caf295,0,1
620,620,0,adfd954331034d4a56faa7fb518b9e4e51d92397ac5731a76abf510617009357,7e06851f9cbd9eb5,0,1
621,621,0,adfd954331034d4a56faa7fb518b9e4e51d92397ac5731a76abf510617009357,5894f61366159550,0,1
622,622,0,adfd954331034d4a56faa7fb518b9e4e51d92397ac5731a76abf510617009357,b774ead3f2672c36,0,1
623,623,0,adfd954331034d4a56faa7fb518b9e4e51d92397ac5731a76abf510617009357,9cb2d9801e63ff9d,0,1
624,624,0,a54d73d104c349976d67da9e3adb84fdbeed0f30cf0a741dba1c2097e6a796d1,773e203b79576098,0,1
625,625,0,a54d73d104c349976d67da9e3adb84fdbeed0f30cf0a741dba1c2097e6a796d1,afb125f3a76b8468,0,1
626,626,0,a54d73d104c349976d67da9e3adb84fdbeed0f30cf0a741dba1c2097e6a796d1,c60bff42e7e3db72,0,1
627,627,0,a54d73d104c349976d67da9e3adb84fdbeed0f30cf0a741dba1c2097e6a796d1,52b2c08cc2a9bfb5,0,1
628,628,0,894bfdd1a9262c8f7281a7d2ebfca53ea45040920f8859be3479ca8d22aae454,7279d18adfe55f6a,0,1
629,629,0,894bfdd1a9262c8f7281a7d2ebfca53ea45040920f8859be3479ca8d22aae454,e58cea35e9c49b8a,0,1
630,630,0,894bfdd1a9262c8f7281a7d2ebfca53ea45040920f8859be3479ca8d22aae454,eac900e8608afd56,0,1
631,631,0,894bfdd1a9262c8f7281a7d2ebfca53ea45040920f8859be3479ca8d22aae454,e992c3208bceb2a5,0,1
632,632,0,bc9e035c7a9b64836e3c90540aa6590dc949cfbb093f06c0ef1d25cca1bfacd6,bf21db5c795be6b6,0,1
633,633,0,bc9e035c7a9b64836e3c90540aa6590dc949cfbb093f06c0ef1d25cca1bfacd6,b82e50f30cf0b77d,0,1
634,634,0,bc9e035c7a9b64836e3c90540aa6590dc949cfbb093f06c0ef1d25cca1bfacd6,8b69e567e904385d,0,1
635,635,0,bc9e035c7a9b64836e3c90540aa6590dc949cfbb093f06c0ef1d25cca1bfacd6,f13464958bbfd291,0,1
636,636,0,add081406a49877a2b26dd43fbc7cfc864abfec2ad526ae076f485339d1619d1,7ca53fd74be5814e,0,1
637,637,0,add081406a49877a2b26dd43fbc7cfc864abfec2ad526ae076f485339d1619d1,7d9a11f049020a25,0,1
638,638,0,add081406a49877a2b26dd43fbc7cfc864abfec2ad526ae076f485339d1619d1,2a275544b1539e2c,0,1
639,639,0,add081406a49877a2b26dd43fbc7cfc864abfec2ad526ae076f485339d1619d1,c126d95e3ac0793d,0,1
640,640,0,8ae68688a3b9d887560d31b2f86c6c1f64de51724245caa20c55fe14a2830464,b09a65502a093c76,0,1
641,641,0,8ae68688a3b9d887560d31b2f86c6c1f64de51724245caa20c55fe14a2830464,0360fc90ddf39293,0,1
642,642,0,8ae68688a3b9d887560d31b2f86c6c1f64de51724245caa20c55fe14a2830464,6b35fd8533a4b8f7,0,1
643,643,0,8ae68688a3b9d887560d31b2f86c6c1f64de51724245caa20c55fe14a2830464,5ee1925602810bb5,0,1
644,644,0,abf7f9e99887ca7db8b5b9fc013d9815de9c2271475381bd072aab731bfb86f1,13f3e3dfc2bb64d4,0,1
645,645,0,abf7f9e99887ca7db8b5b9fc013d9815de9c2271475381bd072aab731bfb86f1,07564ab5437fd526,0,1
646,646,0,abf7f9e99887ca7db8b5b9fc013d9815de9c2271475381bd072aab731bfb86f1,8b9868b9cca12f6e,0,1
647,647,0,abf7f9e99887ca7db8b5b9fc013d9815de9c2271475381bd072aab731bfb86f1,e11b9dc511616751,0,1
648,648,0,aad304cfe9ffdb79946bcd9605f30c87c8a292cad71146460a5bf282dc93a2ae,f836361f4d8cb06a,0,1
649,649,0,aad304cfe9ffdb79946bcd9605f30c87c8a292cad71146460a5bf282dc93a2ae,4553a2424e8a7b26,0,1
650,650,0,aad304cfe9ffdb79946bcd9605f30c87c8a292cad71146460a5bf282dc93a2ae,2620c145287faa30,0,1
651,651,0,aad304cfe9ffdb79946bcd9605f30c87c8a292cad71146460a5bf282dc93a2ae,be53e119979fefd5,0,1
652,652,0,a3d37f820cb5a387b447cdff0926257d30271ac4a35efc9e600a0efcede78865,a819bc803f9dad1d,0,1
653,653,0,a3d37f820cb5a387b447cdff0926257d30271ac4a35efc9e600a0efcede78865,bd81cae28e44397b,0,1
654,654,0,a3d37f820cb5a387b447cdff0926257d30271ac4a35efc9e600a0efcede78865,8f61dfd8ced554e0,0,1
655,655,0,a3d37f820cb5a387b447cdff0926257d30271ac4a35efc9e600a0efcede78865,9edbff97f320cb55,0,1
656,656,0,888f7c8451cddb8f4db15967f9f1459b69a3721562e0455416334cf76e40b82e,e130cfa069b3d629,0,1
657,657,0,888f7c8451cddb8f4db15967f9f1459b69a3721562e0455416334cf76e40b82e,626288eb53494513,0,1
658,658,0,888f7c8451cddb8f4db15967f9f1459b69a3721562e0455416334cf76e40b82e,7545c93b414fda50,0,1
659,659,0,888f7c8451cddb8f4db15967f9f1459b69a3721562e0455416334cf76e40b82e,e1c5ad3041fecbc5,0,1
660,660,0,a9f70f3042133b81bafdb92f10d7c9c02f9f306d2fedf40fd30d728f7903abf5,bea46490ffb3e22d,0,1
661,661,0,a9f70f3042133b81bafdb92f10d7c9c02f9f306d2fedf40fd30d728f7903abf5,793f7ac52358e40c,0,1
662,662,0,a9f70f3042133b81bafdb92f10d7c9c02f9f306d2fedf40fd30d728f7903abf5,a611e7b73f705006,0,1
663,663,0,a9f70f3042133b81bafdb92f10d7c9c02f9f306d2fedf40fd30d728f7903abf5,f1dbb38a213ef111,0,1
664,664,0,b44b02c1538b0b606586e0a6e41fdd4b7baa0379d06d35d2e62976959bc0dd6c,d9a28f9fe69a8db2,0,1
665,665,0,b44b02c1538b0b606586e0a6e41fdd4b7baa0379d06d35d2e62976959bc0dd6c,2aa20746a84ec596,0,1
666,666,0,b44b02c1538b0b606586e0a6e41fdd4b7baa0379d06d35d2e62976959bc0dd6c,741d0276ef32cc68,0,1
667,667,0,b44b02c1538b0b606586e0a6e41fdd4b7baa0379d06d35d2e62976959bc0dd6c,81dcc8420cf0ef95,0,1
668,668,0,a50390aa3b0c629a5ade8d4fd3293fefbd579c34b9649e6beaf6520c8166aa8a,0393eb08f49dbf5d,0,1
669,669,0,a50390aa3b0c629a5ade8d4fd3293fefbd579c34b9649e6beaf6520c8166aa8a,f02fb7f4b60cf9f4,0,1
670,670,0,a50390aa3b0c629a5ade8d4fd3293fefbd579c34b9649e6beaf6520c8166aa8a,afd5c09ef14eb0cb,0,1
671,671,0,a50390aa3b0c629a5ade8d4fd3293fefbd579c34b9649e6beaf6520c8166aa8a,06d0d1ca8340d22d,0,1
672,672,0,afd6676472f9bb4cb3476a5418616c0de0c9162c99c0c6ac7c7b44cae9df2f44,d2bbf827650761a6,0,1
673,673,0,afd6676472f9bb4cb3476a5418616c0de0c9162c99c0c6ac7c7b44cae9df2f44,4bacb60b9ec055de,0,1
674,674,0,afd6676472f9bb4cb3476a5418616c0de0c9162c99c0c6ac7c7b44cae9df2f44,36bb03d9a96e9467,0,1
675,675,0,afd6676472f9bb4cb3476a5418616c0de0c9162c99c0c6ac7c7b44cae9df2f44,594630dc5509c0a5,0,1
676,676,0,8b4723e68399c97dc44de2fc7efa0ca9826c4ef77ddfab7dcab71abd4c483def,f7fc94cbf2b17b5a,0,1
677,677,0,8b4723e68399c97dc44de2fc7efa0ca9826c4ef77ddfab7dcab71abd4c483def,d679269d2c39eabd,0,1
678,678,0,8b4723e68399c97dc44de2fc7efa0ca9826c4ef77ddfab7dcab71abd4c483def,51556681304a6f57,0,1
679,679,0,8b4723e68399c97dc44de2fc7efa0ca9826c4ef77ddfab7dcab71abd4c483def,32dd9f4e26e66bf5,0,1
680,680,0,a1e0e55fc0e4b8cdb6b52e90728f688fc09f15599125841fcb375b1908a1e2dd,b03686182a56e2cd,0,1
681,681,0,a1e0e55fc0e4b8cdb6b52e90728f688fc09f15599125841fcb375b1908a1e2dd,3563039934689307,0,1
682,682,0,a1e0e55fc0e4b8cdb6b52e90728f688fc09f15599125841fcb375b1908a1e2dd,22f4fb975322de3e,0,1
683,683,0,a1e0e55fc0e4b8cdb6b52e90728f688fc09f15599125841fcb375b1908a1e2dd,be9399c167c4e2d1,0,1
684,684,0,a80011afc948a6f0b4db9c1e165dfca758152f83f57b4d8a97eacfe3c84faea5,95305f7e3f47b223,0,1
685,685,0,a80011afc948a6f0b4db9c1e165dfca758152f83f57b4d8a97eacfe3c84faea5,bed5fbbeef723641,0,1
686,686,0,a80011afc948a6f0b4db9c1e165dfca758152f83f57b4d8a97eacfe3c84faea5,f7bc1232bd58ed53,0,1
687,687,0,a80011afc948a6f0b4db9c1e165dfca758152f83f57b4d8a97eacfe3c84faea5,b31d2703faa70785,0,1
688,688,0,beb9ea14e487592414b6728d0089a4e5442fe171c41598287f7be78a621ee9a7,f116f14e0974ad6d,0,1
689,689,0,beb9ea14e487592414b6728d0089a4e5442fe171c41598287f7be78a621ee9a7,f821a4899aa8f903,0,1
690,690,0,beb9ea14e487592414b6728d0089a4e5442fe171c41598287f7be78a621ee9a7,bb47851098daecd3,0,1
691,691,0,beb9ea14e487592414b6728d0089a4e5442fe171c41598287f7be78a621ee9a7,0f651293f5880015,0,1
692,692,0,88a6ca4480c5d40fc28003e1bf5f26fcb27079433163381773883248cf8ad206,e53fba687839db2d,0,1
693,693,0,88a6ca4480c5d40fc28003e1bf5f26fcb27079433163381773883248cf8ad206,51b2deafc1f4a81a,0,1
694,694,0,88a6ca4480c5d40fc28003e1bf5f26fcb27079433163381773883248cf8ad206,a575f213c7f357e9,0,1
695,695,0,88a6ca4480c5d40fc28003e1bf5f26fcb27079433163381773883248cf8ad206,249ae12728579d7d,0,1
696,696,0,94921a299b7b4764b46ef3975725d80bd8ea88bdf3d82f180a150bc21c02d892,a7259100b14e6d28,0,1
697,697,0,94921a299b7b4764b46ef3975725d80bd8ea88bdf3d82f180a150bc21c02d892,1419a8238e87f422,0,1
698,698,0,94921a299b7b4764b46ef3975725d80bd8ea88bdf3d82f180a150bc21c02d892,e597784651e7defe,0,1
699,699,0,94921a299b7b4764b46ef3975725d80bd8ea88bdf3d82f180a150bc21c02d892,f02ba30122536511,0,1
700,700,0,9c1e510f11c9bca718a7fee761f0fa9095a21ff69b9705f48e0d656e916ff77b,3f64fafd87c00143,0,1
701,701,0,9c1e510f11c9bca718a7fee761f0fa9095a21ff69b9705f48e0d656e916ff77b,e81cc68cc29e0e4d,0,1
702,702,0,9c1e510f11c9bca718a7fee761f0fa9095a21ff69b9705f48e0d656e916ff77b,604b51f3124c11ce,0,1
703,703,0,9c1e510f11c9bca718a7fee761f0fa9095a21ff69b9705f48e0d656e916ff77b,26e2ded994584929,0,1
704,704,0,9ad142cec37a5ffabb6b1661d83e5b0fb012028c4142be769c45959f8504f68a,d01ba4eae9cf762d,0,1
705,705,0,9ad142cec37a5ffabb6b1661d83e5b0fb012028c4142be769c45959f8504f68a,18f41bcfbd11571b,0,1
706,706,0,9ad142cec37a5ffabb6b1661d83e5b0fb012028c4142be769c45959f8504f68a,491b403843d0a850,0,1
707,707,0,9ad142cec37a5ffabb6b1661d83e5b0fb012028c4142be769c45959f8504f68a,e53d9388f08a7839,0,1
708,708,0,89be544b85202280d9021d20dab7634e28e117d561fd658e7bb8cf199554b8fd,095f0f86e77fe518,0,1
709,709,0,89be544b85202280d9021d20dab7634e28e117d561fd658e7bb8cf199554b8fd,2fa0e9d96ff845a9,0,1
710,710,0,89be544b85202280d9021d20dab7634e28e117d561fd658e7bb8cf199554b8fd,deeff68976a6b071,0,1
711,711,0,89be544b85202280d9021d20dab7634e28e117d561fd658e7bb8cf199554b8fd,5ffa5ec373428b59,0,1
712,712,0,850c3de83e9880dff3f7a2bb24b89991b28af2484672581c3e00eb2034d9c499,f0da7c1b8668d6dd,0,1
713,713,0,850c3de83e9880dff3f7a2bb24b89991b28af2484672581c3e00eb2034d9c499,6e7d42823140480d,0,1
714,714,0,850c3de83e9880dff3f7a2bb24b89991b28af2484672581c3e00eb2034d9c499,516f20a1f9a9a239,0,1
715,715,0,850c3de83e9880dff3f7a2bb24b89991b28af2484672581c3e00eb2034d9c499,014404a1d22a7d91,0,1
716,716,0,a6c174478d7d665b9e656c6564a288b7a5447554dee9ba455173d06ab1d862d9,72c6ed5b04b8409b,0,1
717,717,0,a6c174478d7d665b9e656c6564a288b7a5447554dee9ba455173d06ab1d862d9,71a6bf86abe88714,0,1
718,718,0,a6c174478d7d665b9e656c6564a288b7a5447554dee9ba455173d06ab1d862d9,bf1d2aa998f31dde,0,1
719,719,0,a6c174478d7d665b9e656c6564a288b7a5447554dee9ba455173d06ab1d862d9,fb01197c17bc30a1,0,1
720,720,0,9f959989a40b1a44ae80e9562c61ac90a4cdc9a68a5dcd521735dde4c60660f6,89991d24dd45efcf,0,1
721,721,0,9f959989a40b1a44ae80e9562c61ac90a4cdc9a68a5dcd521735dde4c60660f6,381a4e62124f514d,0,1
722,722,0,9f959989a40b1a44ae80e9562c61ac90a4cdc9a68a5dcd521735dde4c60660f6,99239b2c04d7007c,0,1
723,723,0,9f959989a40b1a44ae80e9562c61ac90a4cdc9a68a5dcd521735dde4c60660f6,da66beb1e22e8365,0,1
724,724,0,9a24cf16f26bcf88003780bc5a8343a2077459fc54cba17ca55e998cdd49035c,ed114526a636a679,0,1
725,725,0,9a24cf16f26bcf88003780bc5a8343a2077459fc54cba17ca55e998cdd49035c,a25d977b2aae22a5,0,1
726,726,0,9a24cf16f26bcf88003780bc5a8343a2077459fc54cba17ca55e998cdd49035c,9b461b8d560bce8a,0,1
727,727,0,9a24cf16f26bcf88003780bc5a8343a2077459fc54cba17ca55e998cdd49035c,2258d0259199a9f9,0,1
728,728,0,aba5ee766c7459e1d23cacfdb57cd35b9091cbbc6b3bbe70a288d03cdb7a5f97,093586346a970175,0,1
729,729,0,aba5ee766c7459e1d23cacfdb57cd35b9091cbbc6b3bbe70a288d03cdb7a5f97,4ab3ba516593b325,0,1
730,730,0,aba5ee766c7459e1d23cacfdb57cd35b9091cbbc6b3bbe70a288d03cdb7a5f97,6f06606327bbace8,0,1
731,731,0,aba5ee766c7459e1d23cacfdb57cd35b9091cbbc6b3bbe70a288d03cdb7a5f97,11f3d64f68f32459,0,1
732,732,0,a182d13b3138cdc2831b3fb089254476c33757e163e4625825a158bac55d7bd0,45c2c15a3d01ec00,0,1
733,733,0,a182d13b3138cdc2831b3fb089254476c33757e163e4625825a158bac55d7bd0,3e85d32a3f9a2ee0,0,1
734,734,0,a182d13b3138cdc2831b3fb089254476c33757e163e4625825a158bac55d7bd0,3ac092bb31997aa5,0,1
735,735,0,a182d13b3138cdc2831b3fb089254476c33757e163e4625825a158bac55d7bd0,879a2e366e77a5d5,0,1
736,736,0,b497d30a88b416970886b1f5f39c9de78b0eed26759cfb4a089d6f84ca7604e5,dacb3eadbf353c4b,0,1
737,737,0,b497d30a88b416970886b1f5f39c9de78b0eed26759cfb4a089d6f84ca7604e5,0e7ddcd63dd38909,0,1
738,738,0,b497d30a88b416970886b1f5f39c9de78b0eed26759cfb4a089d6f84ca7604e5,e9fa5edb3c0b1145,0,1
739,739,0,b497d30a88b416970886b1f5f39c9de78b0eed26759cfb4a089d6f84ca7604e5,43b31c8cdc8b4185,0,1
740,740,0,8a6bb9cc4876c7cee07822272a726ffca03163564174196dab0da888e3194cd2,6e22a4910dfcd8c1,0,1
741,741,0,8a6bb9cc4876c7cee07822272a726ffca03163564174196dab0da888e3194cd2,1a4627c687eaecc3,0,1
742,742,0,8a6bb9cc4876c7cee07822272a726ffca03163564174196dab0da888e3194cd2,0bdebaa35d1a85a4,0,1
743,743,0,8a6bb9cc4876c7cee07822272a726ffca03163564174196dab0da888e3194cd2,e9682d1150cbe92d,0,1
744,744,0,85afe2150f69ce4285173477480f705900eafe32c7cb8c56e8f49f488738e0e4,e7b939cfaf8d6110,0,1
745,745,0,85afe2150f69ce4285173477480f705900eafe32c7cb8c56e8f49f488738e0e4,52df39ae64b770d1,0,1
746,746,0,85afe2150f69ce4285173477480f705900eafe32c7cb8c56e8f49f488738e0e4,a7206e5321f6b910,0,1
747,747,0,85afe2150f69ce4285173477480f705900eafe32c7cb8c56e8f49f488738e0e4,73e36e12339dd651,0,1
748,748,0,9c5a04b6a0bd4f7910f6981432b8a0c494404b010a14ae156280d7a297848654,3ff64e54e4441e07,0,1
749,749,0,9c5a04b6a0bd4f7910f6981432b8a0c494404b010a14ae156280d7a297848654,b6982e826ac68c05,0,1
750,750,0,9c5a04b6a0bd4f7910f6981432b8a0c494404b010a14ae156280d7a297848654,4b3298c71115b0d5,0,1
751,751,0,9c5a04b6a0bd4f7910f6981432b8a0c494404b010a14ae156280d7a297848654,427396f0a847f5a1,0,1
752,752,0,a71f64fa060e258fc2481d753f66b28cebb995eff8e3d13e9feb010c40235521,9a0ef012ee2ce8a1,0,1
753,753,0,a71f64fa060e258fc2481d753f66b28cebb995eff8e3d13e9feb010c40235521,6a31d3e34c7f5700,0,1
754,754,0,a71f64fa060e258fc2481d753f66b28cebb995eff8e3d13e9feb010c40235521,27071ce112f92f17,0,1
755,755,0,a71f64fa060e258fc2481d753f66b28cebb995eff8e3d13e9feb010c40235521,9ef2bd056d205a39,0,1
756,756,0,a580748b175fc5b989bb7ae1d71fccc3886c0b215eea5daabf65185cc073f588,23051d4c28196f08,0,1
757,757,0,a580748b175fc5b989bb7ae1d71fccc3886c0b215eea5daabf65185cc073f588,a875285080d20229,0,1
758,758,0,a580748b175fc5b989bb7ae1d71fccc3886c0b215eea5daabf65185cc073f588,2a6121e945eb0146,0,1
759,759,0,a580748b175fc5b989bb7ae1d71fccc3886c0b215eea5daabf65185cc073f588,f1a470605f26f8e5,0,1
760,760,0,b725228c428b3ba7227a3eb45bb3444dfe1941ef220472011223321d68658e8c,314d66fcaeb81243,0,1
761,761,0,b725228c428b3ba7227a3eb45bb3444dfe1941ef220472011223321d68658e8c,7c8bc71ff7a99dd7,0,1
762,762,0,b725228c428b3ba7227a3eb45bb3444dfe1941ef220472011223321d68658e8c,84aac4023080d7f9,0,1
763,763,0,b725228c428b3ba7227a3eb45bb3444dfe1941ef220472011223321d68658e8c,9da3fae8d12e01a5,0,1
764,764,0,89442c56929e8e1dc500573cea4a5e5e73e3748cc227bf3d231cc503972ba43a,c333f8eb875edd91,0,1
765,765,0,89442c56929e8e1dc500573cea4a5e5e73e3748cc227bf3d231cc503972ba43a,55ba577a84d03611,0,1
766,766,0,89442c56929e8e1dc500573cea4a5e5e73e3748cc227bf3d231cc503972ba43a,11afce033a18a6fd,0,1
767,767,0,89442c56929e8e1dc500573cea4a5e5e73e3748cc227bf3d231cc503972ba43a,e5dcd1423144a4ed,0,1
768,768,0,9654c0b6bd23f8b297da11de267db110265b0273813e8e69c563558750091221,b222cdda2d7c5e44,0,1
769,769,0,9654c0b6bd23f8b297da11de267db110265b0273813e8e69c563558750091221,804e2044f782987f,0,1
770,770,0,9654c0b6bd23f8b297da11de267db110265b0273813e8e69c563558750091221,3171a616b84cc448,0,1
771,771,0,9654c0b6bd23f8b297da11de267db110265b0273813e8e69c563558750091221,b87179496a342291,0,1
772,772,0,9543613eb770afc4474f29d1bcedea40b29063f61e8dc792dd9ad7613ef3d743,7a7a52573cea00a3,0,1
773,773,0,9543613eb770afc4474f29d1bcedea40b29063f61e8dc792dd9ad7613ef3d743,bcfde443312ec7ce,0,1
774,774,0,9543613eb770afc4474f29d1bcedea40b29063f61e8dc792dd9ad7613ef3d743,5c25d4e9c0a338c4,0,1
775,775,0,9543613eb770afc4474f29d1bcedea40b29063f61e8dc792dd9ad7613ef3d743,4d1fc4bd6d032a69,0,1
776,776,0,8104fb0e0df5d6f185ceb751c3dc9af15461ee11a41610a8cedc131ca63c7594,088dbe647b885be9,0,1
777,777,0,8104fb0e0df5d6f185ceb751c3dc9af15461ee11a41610a8cedc131ca63c7594,96717c81ce40da64,0,1
778,778,0,8104fb0e0df5d6f185ceb751c3dc9af15461ee11a41610a8cedc131ca63c7594,8448900ae1aac6a3,0,1
779,779,0,8104fb0e0df5d6f185ceb751c3dc9af15461ee11a41610a8cedc131ca63c7594,23f50eed7c86c2a9,0,1
780,780,0,976a6f44863801f8642a2702df68e87b5b7db5877d6124cb126fe0cf0aceaaf8,0257b73d8b94f2e2,0,1
781,781,0,976a6f44863801f8642a2702df68e87b5b7db5877d6124cb126fe0cf0aceaaf8,49e3b1786fc6094d,0,1
782,782,0,976a6f44863801f8642a2702df68e87b5b7db5877d6124cb126fe0cf0aceaaf8,c2ebcf7c86eb59bb,0,1
783,783,0,976a6f44863801f8642a2702df68e87b5b7db5877d6124cb126fe0cf0aceaaf8,8f6bafb070df2081,0,1
784,784,0,befafc95d82d2bd112d9a8dfd81d5253cab85bbc7409205df3eadc746193ae58,8f593bc38aed73a1,0,1
785,785,0,befafc95d82d2bd112d9a8dfd81d5253cab85bbc7409205df3eadc746193ae58,150868258877862a,0,1
786,786,0,befafc95d82d2bd112d9a8dfd81d5253cab85bbc7409205df3eadc746193ae58,29ae3c6538c83b73,0,1
787,787,0,befafc95d82d2bd112d9a8dfd81d5253cab85bbc7409205df3eadc746193ae58,1f801c6122f656e9,0,1
788,788,0,a5be41a9a06f21df86860d5685c50ff0ada096cb2842af55747d31ce270f1be8,de1716fb40e45426,0,1
789,789,0,a5be41a9a06f21df86860d5685c50ff0ada096cb2842af55747d31ce270f1be8,d32486bee1adbeda,0,1
790,790,0,a5be41a9a06f21df86860d5685c50ff0ada096cb2842af55747d31ce270f1be8,1f557350f307f648,0,1
791,791,0,a5be41a9a06f21df86860d5685c50ff0ada096cb2842af55747d31ce270f1be8,8bd4b41ba93f5f7d,0,1
792,792,0,8624dceca1df82ab282928cacd37fc8477ea7077b6c711850dd26b62709a375a,ca4ab81bfb159b48,0,1
793,793,0,8624dceca1df82ab282928cacd37fc8477ea7077b6c711850dd26b62709a375a,ba04902e3dda1d53,0,1
794,794,0,8624dceca1df82ab282928cacd37fc8477ea7077b6c711850dd26b62709a375a,1a75c9862e3b57cf,0,1
795,795,0,8624dceca1df82ab282928cacd37fc8477ea7077b6c711850dd26b62709a375a,fb84f60595827da5,0,1
796,796,0,a5c3157e76b814ed4e856c116cda41b9954c6d7945d632da1dc41abb85ec23e1,0ff0a3a16ab06161,0,1
797,797,0,a5c3157e76b814ed4e856c116cda41b9954c6d7945d632da1dc41abb85ec23e1,aaf54214d36905b5,0,1
798,798,0,a5c3157e76b814ed4e856c116cda41b9954c6d7945d632da1dc41abb85ec23e1,17d8f0e4738cbe2e,0,1
799,799,0,a5c3157e76b814ed4e856c116cda41b9954c6d7945d632da1dc41abb85ec23e1,d541fb85373b2461,0,1
800,800,0,a1cfce5ddb4c6c380d97e7c741b8a41e5e25d4d5cd2255ff103469248cb6f8e0,213fecb353149414,0,1
801,801,0,a1cfce5ddb4c6c380d97e7c741b8a41e5e25d4d5cd2255ff103469248cb6f8e0,a188e36dee0e57ee,0,1
802,802,0,a1cfce5ddb4c6c380d97e7c741b8a41e5e25d4d5cd2255ff103469248cb6f8e0,5aec590e46d64bb0,0,1
803,803,0,a1cfce5ddb4c6c380d97e7c741b8a41e5e25d4d5cd2255ff103469248cb6f8e0,b7281d6e7ea8c3a5,0,1
804,804,0,be50d28c1ea02c5309de00e0ce1e65ab48e4ecd6ce40e9a954d1d375cffe99ea,9d825b368836a172,0,1
805,805,0,be50d28c1ea02c5309de00e0ce1e65ab48e4ecd6ce40e9a954d1d375cffe99ea,5b4c6ba29eb632a9,0,1
806,806,0,be50d28c1ea02c5309de00e0ce1e65ab48e4ecd6ce40e9a954d1d375cffe99ea,87c437a1dd5823b8,0,1
807,807,0,be50d28c1ea02c5309de00e0ce1e65ab48e4ecd6ce40e9a954d1d375cffe99ea,1c3632dbba73f385,0,1
808,808,0,8e1c62abfab37309ec0cbf4797b2374fe131033ea30edfcf16b68c542025e3e1,78251d82e3e7e9b0,0,1
809,809,0,8e1c62abfab37309ec0cbf4797b2374fe131033ea30edfcf16b68c542025e3e1,ffaa44b3ab2ba47a,0,1
810,810,0,8e1c62abfab37309ec0cbf4797b2374fe131033ea30edfcf16b68c542025e3e1,071f6d3124962c08,0,1
811,811,0,8e1c62abfab37309ec0cbf4797b2374fe131033ea30edfcf16b68c542025e3e1,ca340578314b0a7d,0,1
812,812,0,9adc249fede0943b4416a67e73d7c0d7b9c65d7fc7334276848b4e1943673b82,d5a6787307007b90,0,1
813,813,0,9adc249fede0943b4416a67e73d7c0d7b9c65d7fc7334276848b4e1943673b82,959702736b372712,0,1
814,814,0,9adc249fede0943b4416a67e73d7c0d7b9c65d7fc7334276848b4e1943673b82,57997ff3aecb8b2a,0,1
815,815,0,9adc249fede0943b4416a67e73d7c0d7b9c65d7fc7334276848b4e1943673b82,90cecd5fd5463871,0,1
816,816,0,8977a61013eaf285c4321c89faa013772d8e0b0597bf397384faf76f510a62d6,f2ec4de9e2fd3037,0,1
817,817,0,8977a61013eaf285c4321c89faa013772d8e0b0597bf397384faf76f510a62d6,f3fb70c57cc08c87,0,1
818,818,0,8977a61013eaf285c4321c89faa013772d8e0b0597bf397384faf76f510a62d6,87c7a4042a316d68,0,1
819,819,0,8977a61013eaf285c4321c89faa013772d8e0b0597bf397384faf76f510a62d6,dc2907b7f9243b59,0,1
820,820,0,9fd15ea42003e23e1bfa369306d788bff9025044823bd2d870aa56ef0b776e96,eb03ebce7e656822,0,1
821,821,0,9fd15ea42003e23e1bfa369306d788bff9025044823bd2d870aa56ef0b776e96,6e42cce3feba639d,0,1
822,822,0,9fd15ea42003e23e1bfa369306d788bff9025044823bd2d870aa56ef0b776e96,41dce6c29872d121,0,1
823,823,0,9fd15ea42003e23e1bfa369306d788bff9025044823bd2d870aa56ef0b776e96,a14f57c80865ee91,0,1
824,824,0,b56a67f416239e7cec454aa98d5f922ae9a1adca8216298706d1dfb004f46b08,eec8055f91384c23,0,1
825,825,0,b56a67f416239e7cec454aa98d5f922ae9a1adca8216298706d1dfb004f46b08,ce9cfde9a0d071b4,0,1
826,826,0,b56a67f416239e7cec454aa98d5f922ae9a1adca8216298706d1dfb004f46b08,6b46508af6ef5f21,0,1
827,827,0,b56a67f416239e7cec454aa98d5f922ae9a1adca8216298706d1dfb004f46b08,7c47c004257a8bf9,0,1
828,828,0,a3b0ddb79ab6b44cbb96724b8b38f7c210d6a9fdec1b9d237caa2c19f78edff9,fd11eb60c96c5fd8,0,1
829,829,0,a3b0ddb79ab6b44cbb96724b8b38f7c210d6a9fdec1b9d237caa2c19f78edff9,1b4bdc41220a409f,0,1
830,830,0,a3b0ddb79ab6b44cbb96724b8b38f7c210d6a9fdec1b9d237caa2c19f78edff9,6976eed0f76a550e,0,1
831,831,0,a3b0ddb79ab6b44cbb96724b8b38f7c210d6a9fdec1b9d237caa2c19f78edff9,3e79c4682fe656ad,0,1
832,832,0,9421d4b07fae2a082b4c60fdedb234590dc1f00997c5cf8f7809e4d90e00aa69,5449fab19552a237,0,1
833,833,0,9421d4b07fae2a082b4c60fdedb234590dc1f00997c5cf8f7809e4d90e00aa69,e194684153b58597,0,1
834,834,0,9421d4b07fae2a082b4c60fdedb234590dc1f00997c5cf8f7809e4d90e00aa69,10d62f200dfb8b60,0,1
835,835,0,9421d4b07fae2a082b4c60fdedb234590dc1f00997c5cf8f7809e4d90e00aa69,322d6d59edbb0dc5,0,1
836,836,0,aa652a632929b65ef65c47560a1b53ea2ae4583a5a00bbd2845db0b4ef8bcd20,43ef1cd1d24e69dd,0,1
837,837,0,aa652a632929b65ef65c47560a1b53ea2ae4583a5a00bbd2845db0b4ef8bcd20,c4b9d837bf956b08,0,1
838,838,0,aa652a632929b65ef65c47560a1b53ea2ae4583a5a00bbd2845db0b4ef8bcd20,9ffb71ef9834553e,0,1
839,839,0,aa652a632929b65ef65c47560a1b53ea2ae4583a5a00bbd2845db0b4ef8bcd20,105475fe0d2b8429,0,1
840,840,0,8a6875b9dc1683fdcfe1efe4484a159cf2875c32758a849f0f126f39f5f91c5b,9a2c4db7bf0632d4,0,1
841,841,0,8a6875b9dc1683fdcfe1efe4484a159cf2875c32758a849f0f126f39f5f91c5b,f1f3a3e9900f83b0,0,1
842,842,0,8a6875b9dc1683fdcfe1efe4484a159cf2875c32758a849f0f126f39f5f91c5b,965500709b27901e,0,1
843,843,0,8a6875b9dc1683fdcfe1efe4484a159cf2875c32758a849f0f126f39f5f91c5b,7a6d9494c654a655,0,1
844,844,0,9b1928533739ade943b6b93c446838205f9db98af7907dd88486a5c23491171b,57cad8506ae23a6f,0,1
845,845,0,9b1928533739ade943b6b93c446838205f9db98af7907dd88486a5c23491171b,4bdd005a5c1a2754,0,1
846,846,0,9b1928533739ade943b6b93c446838205f9db98af7907dd88486a5c23491171b,04b3d1f72d0dba21,0,1
847,847,0,9b1928533739ade943b6b93c446838205f9db98af7907dd88486a5c23491171b,bfc1683b9dae1651,0,1
848,848,0,9c3a630595504046582735b96952aab49d07fa094cd0b9546e965bcb3afe0ecd,39a8521227f787f3,0,1
849,849,0,9c3a630595504046582735b96952aab49d07fa094cd0b9546e965bcb3afe0ecd,f92151ae4c3ae14f,0,1
850,850,0,9c3a630595504046582735b96952aab49d07fa094cd0b9546e965bcb3afe0ecd,da389faf9cf648f0,0,1
851,851,0,9c3a630595504046582735b96952aab49d07fa094cd0b9546e965bcb3afe0ecd,97b59cecca1498d9,0,1
852,852,0,8ca691f4eff3eb7feee2eac7121d1ab370d9935bde34491d837404432f52cd6d,041c16223c9d6dc2,0,1
853,853,0,8ca691f4eff3eb7feee2eac7121d1ab370d9935bde34491d837404432f52cd6d,1bbe09ef519db9fa,0,1
854,854,0,8ca691f4eff3eb7feee2eac7121d1ab370d9935bde34491d837404432f52cd6d,d8e8892c43a56121,0,1
855,855,0,8ca691f4eff3eb7feee2eac7121d1ab370d9935bde34491d837404432f52cd6d,62020aa9a0c65c39,0,1
856,856,0,902ee314884578abbac2f6ef127f309556b39935872b0584cb37b32be9253f5f,2d554a969dace41a,0,1
857,857,0,902ee314884578abbac2f6ef127f309556b39935872b0584cb37b32be9253f5f,2a9d0b32905fe0b9,0,1
858,858,0,902ee314884578abbac2f6ef127f309556b39935872b0584cb37b32be9253f5f,b3707f5cd3da6976,0,1
859,859,0,902ee314884578abbac2f6ef127f309556b39935872b0584cb37b32be9253f5f,fed7cff72f896531,0,1
860,860,0,be21c5b1d2fafb926e2d07e0b2b55a8ba421692f56789d0b5f421bd25dc19eb1,cd58b848e3574777,0,1
861,861,0,be21c5b1d2fafb926e2d07e0b2b55a8ba421692f56789d0b5f421bd25dc19eb1,b8922c7bdac99b0e,0,1
862,862,0,be21c5b1d2fafb926e2d07e0b2b55a8ba421692f56789d0b5f421bd25dc19eb1,b6b34af4c2202ec1,0,1
863,863,0,be21c5b1d2fafb926e2d07e0b2b55a8ba421692f56789d0b5f421bd25dc19eb1,d51ea21128c77409,0,1
864,864,0,bd2a8e855abd67e6f0670de961d4ee7cd1d3ecd57acf2826fe11151ab411e6ad,a90cfe48f76f435d,0,1
865,865,0,bd2a8e855abd67e6f0670de961d4ee7cd1d3ecd57acf2826fe11151ab411e6ad,21a0d4e1ac99cd6a,0,1
866,866,0,bd2a8e855abd67e6f0670de961d4ee7cd1d3ecd57acf2826fe11151ab411e6ad,fafca497d4cdecd3,0,1
867,867,0,bd2a8e855abd67e6f0670de961d4ee7cd1d3ecd57acf2826fe11151ab411e6ad,49df5f4b8da3847d,0,1
868,868,0,9cb9dcbe4a08ed0c453d88f9538bde0e94f4316ef8927840bb1f74b804962dcb,d15aad4d07e0b476,0,1
869,869,0,9cb9dcbe4a08ed0c453d88f9538bde0e94f4316ef8927840bb1f74b804962dcb,d0b91e6af4968425,0,1
870,870,0,9cb9dcbe4a08ed0c453d88f9538bde0e94f4316ef8927840bb1f74b804962dcb,8d7983ba4bd842fa,0,1
871,871,0,9cb9dcbe4a08ed0c453d88f9538bde0e94f4316ef8927840bb1f74b804962dcb,67e6bd5aa17154bd,0,1
872,872,0,82387d3f98ca614a844666ddbcbe4b7bbc56d2d1da446fdd99958fb238962f3a,3e772b8697b0e60f,0,1
873,873,0,82387d3f98ca614a844666ddbcbe4b7bbc56d2d1da446fdd99958fb238962f3a,6414f35eab37cb8b,0,1
874,874,0,82387d3f98ca614a844666ddbcbe4b7bbc56d2d1da446fdd99958fb238962f3a,b567882d58a8887f,0,1
875,875,0,82387d3f98ca614a844666ddbcbe4b7bbc56d2d1da446fdd99958fb238962f3a,30b710527d3b9d39,0,1
876,876,0,b92769c5f391cf4f048809e0d649284b2f669248d2e23587d5daf99f7cd91920,707bd1ca9f11bca2,0,1
877,877,0,b92769c5f391cf4f048809e0d649284b2f669248d2e23587d5daf99f7cd91920,021e491f768c2f29,0,1
878,878,0,b92769c5f391cf4f048809e0d649284b2f669248d2e23587d5daf99f7cd91920,d3b469201d2ef8dd,0,1
879,879,0,b92769c5f391cf4f048809e0d649284b2f669248d2e23587d5daf99f7cd91920,52865319fcbe1c41,0,1
880,880,0,8c08cdc4ef3c7e633290d580bfbdd636a19e2bbbbf420f5ebb84c3068e0db8d2,ded27d3dbb666221,0,1
881,881,0,8c08cdc4ef3c7e633290d580bfbdd636a19e2bbbbf420f5ebb84c3068e0db8d2,bbf6225b8b4b6a3d,0,1
882,882,0,8c08cdc4ef3c7e633290d580bfbdd636a19e2bbbbf420f5ebb84c3068e0db8d2,5cf4691c4df1a999,0,1
883,883,0,8c08cdc4ef3c7e633290d580bfbdd636a19e2bbbbf420f5ebb84c3068e0db8d2,f2f389cfa396e49d,0,1
884,884,0,a2a6f5089cbbb00f46a156a38e67186b9294b24ce9deccf62381b9ea8e0be926,d214926b07901120,0,1
885,885,0,a2a6f5089cbbb00f46a156a38e67186b9294b24ce9deccf62381b9ea8e0be926,e1ac474b124966f4,0,1
886,886,0,a2a6f5089cbbb00f46a156a38e67186b9294b24ce9deccf62381b9ea8e0be926,04989b3ef99f5bab,0,1
887,887,0,a2a6f5089cbbb00f46a156a38e67186b9294b24ce9deccf62381b9ea8e0be926,c67e3cf723b31031,0,1
888,888,0,a8473d7db1952212aa775e1d6715b52080afa32781041a2f4529fb899d270e7e,6c6bbdfd01ab094c,0,1
889,889,0,a8473d7db1952212aa775e1d6715b52080afa32781041a2f4529fb899d270e7e,7af042fdddd47985,0,1
890,890,0,a8473d7db1952212aa775e1d6715b52080afa32781041a2f4529fb899d270e7e,4b1db07160c321dd,0,1
891,891,0,a8473d7db1952212aa775e1d6715b52080afa32781041a2f4529fb899d270e7e,f00ddd3910af6545,0,1
892,892,0,a87b185d141a5297aceb8ba6b5feb4756973e3b67fdaba94f5d40c4f7ec5e6cc,d618e671c56a8562,0,1
893,893,0,a87b185d141a5297aceb8ba6b5feb4756973e3b67fdaba94f5d40c4f7ec5e6cc,6f337b97324d2949,0,1
894,894,0,a87b185d141a5297aceb8ba6b5feb4756973e3b67fdaba94f5d40c4f7ec5e6cc,6497d071579d81c4,0,1
895,895,0,a87b185d141a5297aceb8ba6b5feb4756973e3b67fdaba94f5d40c4f7ec5e6cc,4844a98dbebce215,0,1
896,896,0,9dea552ea5e17b58ab3cc0fc651a8c80a5e8496deaf7aaae76d447c0e85652e3,04ada8e6b87aee55,0,1
897,897,0,9dea552ea5e17b58ab3cc0fc651a8c80a5e8496deaf7aaae76d447c0e85652e3,f4582081e4c5f501,0,1
898,898,0,9dea552ea5e17b58ab3cc0fc651a8c80a5e8496deaf7aaae76d447c0e85652e3,7e70e4b991df94a2,0,1
899,899,0,9dea552ea5e17b58ab3cc0fc651a8c80a5e8496deaf7aaae76d447c0e85652e3,e94a5828ba18de15,0,1
900,900,0,aeffbf09d725510d499879d523b30a606124337f1462858352fe56674bc95d91,ae2d7fad65d1d735,0,1
901,901,0,aeffbf09d725510d499879d523b30a606124337f1462858352fe56674bc95d91,295d5bfe6dc7ce96,0,1
902,902,0,aeffbf09d725510d499879d523b30a606124337f1462858352fe56674bc95d91,3367a37ef2302baf,0,1
903,903,0,aeffbf09d725510d499879d523b30a606124337f1462858352fe56674bc95d91,1ade87a574aa57b9,0,1
904,904,0,8744a798c2675184e7c9c8a9ce9fc46b3890b480ab5e321a43294c9eb01a10a4,013158a63f033cd5,0,1
905,905,0,8744a798c2675184e7c9c8a9ce9fc46b3890b480ab5e321a43294c9eb01a10a4,7555ef57b69217a5,0,1
906,906,0,8744a798c2675184e7c9c8a9ce9fc46b3890b480ab5e321a43294c9eb01a10a4,c74a6a1703e22b6e,0,1
907,907,0,8744a798c2675184e7c9c8a9ce9fc46b3890b480ab5e321a43294c9eb01a10a4,b08aa4eb90fdff75,0,1
908,908,0,9e51c411e112073c29a2f9f538afa914c0eb578382d1e4ccbd002f003bf066d2,0650cdc4ab9e1992,0,1
909,909,0,9e51c411e112073c29a2f9f538afa914c0eb578382d1e4ccbd002f003bf066d2,c1a14628fecc2486,0,1
910,910,0,9e51c411e112073c29a2f9f538afa914c0eb578382d1e4ccbd002f003bf066d2,89ba93d2e66a7f4a,0,1
911,911,0,9e51c411e112073c29a2f9f538afa914c0eb578382d1e4ccbd002f003bf066d2,218ae64319e522e1,0,1
912,912,0,9abc644e9f615b43b79fa605bf01021616890682148ecdde457a733b1ff3fcf0,d623f973951393e7,0,1
913,913,0,9abc644e9f615b43b79fa605bf01021616890682148ecdde457a733b1ff3fcf0,584c7ad5012d091c,0,1
914,914,0,9abc644e9f615b43b79fa605bf01021616890682148ecdde457a733b1ff3fcf0,2508580d793294c2,0,1
915,915,0,9abc644e9f615b43b79fa605bf01021616890682148ecdde457a733b1ff3fcf0,3ce0488788238a79,0,1
916,916,0,88f57859814bfd7cd75e1f6ccf91d2bfb1dbf779475d202cbeacb1521c0b9459,2895f51caf9f4594,0,1
917,917,0,88f57859814bfd7cd75e1f6ccf91d2bfb1dbf779475d202cbeacb1521c0b9459,33278b41c1ead703,0,1
918,918,0,88f57859814bfd7cd75e1f6ccf91d2bfb1dbf779475d202cbeacb1521c0b9459,4b660fdc00f400bd,0,1
919,919,0,88f57859814bfd7cd75e1f6ccf91d2bfb1dbf779475d202cbeacb1521c0b9459,c2da86f972263d59,0,1
920,920,0,8ebee7663e81c873d9b37748c18080eeb454548307c0603db3ddd4e0b8054658,684080fda065f9ed,0,1
921,921,0,8ebee7663e81c873d9b37748c18080eeb454548307c0603db3ddd4e0b8054658,7bb3712841609168,0,1
922,922,0,8ebee7663e81c873d9b37748c18080eeb454548307c0603db3ddd4e0b8054658,0f3fcff8dcce5ea2,0,1
923,923,0,8ebee7663e81c873d9b37748c18080eeb454548307c0603db3ddd4e0b8054658,3ebfd2819a1eaf11,0,1
924,924,0,a6c2f47fcdc34a42a8218b27d98e08678e46b47525763f6b4aa9abd27e1183e2,fd4b89f336f87aeb,0,1
925,925,0,a6c2f47fcdc34a42a8218b27d98e08678e46b47525763f6b4aa9abd27e1183e2,3404bae29eefdb8d,0,1
926,926,0,a6c2f47fcdc34a42a8218b27d98e08678e46b47525763f6b4aa9abd27e1183e2,9a29d0384a8d357d,0,1
927,927,0,a6c2f47fcdc34a42a8218b27d98e08678e46b47525763f6b4aa9abd27e1183e2,ce13817c66e77d71,0,1
928,928,0,8a0b5a31e0f51055a845f64cab61b4143d96417611944dbc5f18995617f02fe1,7701018312eecd9b,0,1
929,929,0,8a0b5a31e0f51055a845f64cab61b4143d96417611944dbc5f18995617f02fe1,bc0603e0c12a2a2d,0,1
930,930,0,8a0b5a31e0f51055a845f64cab61b4143d96417611944dbc5f18995617f02fe1,1a62a01d072bbbcd,0,1
931,931,0,8a0b5a31e0f51055a845f64cab61b4143d96417611944dbc5f18995617f02fe1,4252c3b3fe2f4365,0,1
932,932,0,8c2d5e2877caf916366b67b2ff8ed189e5f67695821096834cc06f37923b81f7,e610719be4d18415,0,1
933,933,0,8c2d5e2877caf916366b67b2ff8ed189e5f67695821096834cc06f37923b81f7,d6fc6ea4ae2d6271,0,1
934,934,0,8c2d5e2877caf916366b67b2ff8ed189e5f67695821096834cc06f37923b81f7,47c1887e4bd59552,0,1
935,935,0,8c2d5e2877caf916366b67b2ff8ed189e5f67695821096834cc06f37923b81f7,aa08af078c5ad051,0,1
936,936,0,8f0db3f8746d5d55d96b0d9e2c5ff829d2fdbc856e0485d198bbb1e86bc4ced4,282d86d5326fa215,0,1
937,937,0,8f0db3f8746d5d55d96b0d9e2c5ff829d2fdbc856e0485d198bbb1e86bc4ced4,3db229886e8269bc,0,1
938,938,0,8f0db3f8746d5d55d96b0d9e2c5ff829d2fdbc856e0485d198bbb1e86bc4ced4,87f40fe86a9918fa,0,1
939,939,0,8f0db3f8746d5d55d96b0d9e2c5ff829d2fdbc856e0485d198bbb1e86bc4ced4,689f53ee147ab431,0,1
940,940,0,b68ff40ee33898c5966cacfa7052c1581e8ed9b2865e81177d9c6711378ce9c4,918b71ff4de6d66c,0,1
941,941,0,b68ff40ee33898c5966cacfa7052c1581e8ed9b2865e81177d9c6711378ce9c4,c1690841a96e6fa7,0,1
942,942,0,b68ff40ee33898c5966cacfa7052c1581e8ed9b2865e81177d9c6711378ce9c4,ef81dc49ecf60332,0,1
943,943,0,b68ff40ee33898c5966cacfa7052c1581e8ed9b2865e81177d9c6711378ce9c4,aabab62e1fcdb0f1,0,1
944,944,0,906a8991e73e58da745526340c83f7707381d5474d9c6b19e7ef24e9e6072bce,941ffa3479b0d69b,0,1
945,945,0,906a8991e73e58da745526340c83f7707381d5474d9c6b19e7ef24e9e6072bce,8ba12076a13dbf4b,0,1
946,946,0,906a8991e73e58da745526340c83f7707381d5474d9c6b19e7ef24e9e6072bce,2b7323d6178ddd19,0,1
947,947,0,906a8991e73e58da745526340c83f7707381d5474d9c6b19e7ef24e9e6072bce,a3191cc7702ff16d,0,1
948,948,0,a728d18549e15336ea64257b4fd4a3ca7d18beead685970e860fc3c528b62cb1,1a834a0e5f353669,0,1
949,949,0,a728d18549e15336ea64257b4fd4a3ca7d18beead685970e860fc3c528b62cb1,e8817a614d9b7178,0,1
950,950,0,a728d18549e15336ea64257b4fd4a3ca7d18beead685970e860fc3c528b62cb1,239731ec88e639be,0,1
951,951,0,a728d18549e15336ea64257b4fd4a3ca7d18beead685970e860fc3c528b62cb1,5b1a7ce789915609,0,1
952,952,0,96c640847ce4dc6a5f089c03ddbf947909eba57efda051ceac5917198adc9d20,0eefc1302c64aa2e,0,1
953,953,0,96c640847ce4dc6a5f089c03ddbf947909eba57efda051ceac5917198adc9d20,98d639b2e2ab81ce,0,1
954,954,0,96c640847ce4dc6a5f089c03ddbf947909eba57efda051ceac5917198adc9d20,73d4e0679724f7e7,0,1
955,955,0,96c640847ce4dc6a5f089c03ddbf947909eba57efda051ceac5917198adc9d20,6cca8792a18b14e5,0,1
956,956,0,840b4425be82af14aa0e2e64f6be6aa822b40ef9306d717baedda840aaece30d,53c52bf2dea42657,0,1
957,957,0,840b4425be82af14aa0e2e64f6be6aa822b40ef9306d717baedda840aaece30d,70e9a16b577d18be,0,1
958,958,0,840b4425be82af14aa0e2e64f6be6aa822b40ef9306d717baedda840aaece30d,8d346d14a3c3f061,0,1
959,959,0,840b4425be82af14aa0e2e64f6be6aa822b40ef9306d717baedda840aaece30d,563b273e21026369,0,1
960,960,0,b396abd18d3547631e9c50c4205798969b67a06f9ff7ee9bb3428d50e2d7fd91,9e29fdbbc03910fa,0,1
961,961,0,b396abd18d3547631e9c50c4205798969b67a06f9ff7ee9bb3428d50e2d7fd91,738a05bf7ea5d790,0,1
962,962,0,b396abd18d3547631e9c50c4205798969b67a06f9ff7ee9bb3428d50e2d7fd91,04b93b5198e89a35,0,1
963,963,0,b396abd18d3547631e9c50c4205798969b67a06f9ff7ee9bb3428d50e2d7fd91,28f5417da422d021,0,1
964,964,0,9eb3d8c4dd2d94cb0269c5b519975ec82aa7ebf5cd1fde6683029d7f28ce3afe,15567d6f26747055,0,1
965,965,0,9eb3d8c4dd2d94cb0269c5b519975ec82aa7ebf5cd1fde6683029d7f28ce3afe,de8eb60c9f702d44,0,1
966,966,0,9eb3d8c4dd2d94cb0269c5b519975ec82aa7ebf5cd1fde6683029d7f28ce3afe,b0c737550215bb75,0,1
967,967,0,9eb3d8c4dd2d94cb0269c5b519975ec82aa7ebf5cd1fde6683029d7f28ce3afe,c6e2acb18bd569cd,0,1
968,968,0,a1fd9f2c1b0f0d85763c6562706e72a47b44b85322956e4c87e35d391aa35ef8,6919ea04230a3978,0,1
969,969,0,a1fd9f2c1b0f0d85763c6562706e72a47b44b85322956e4c87e35d391aa35ef8,d977eff9f605e6d9,0,1
970,970,0,a1fd9f2c1b0f0d85763c6562706e72a47b44b85322956e4c87e35d391aa35ef8,89bfeb470ab142cd,0,1
971,971,0,a1fd9f2c1b0f0d85763c6562706e72a47b44b85322956e4c87e35d391aa35ef8,d329b4bb231bcd79,0,1
972,972,0,8641a24d1eb7094493e500a6853ff4154034d9cd91bd1883ded9a9173cdb2c54,137ae998ada39640,0,1
973,973,0,8641a24d1eb7094493e500a6853ff4154034d9cd91bd1883ded9a9173cdb2c54,667bf8b3afd7e554,0,1
974,974,0,8641a24d1eb7094493e500a6853ff4154034d9cd91bd1883ded9a9173cdb2c54,7f5c7314feb940c1,0,1
975,975,0,8641a24d1eb7094493e500a6853ff4154034d9cd91bd1883ded9a9173cdb2c54,a1b0f0d834f9bf85,0,1
976,976,0,810b244001f054ffb637154afba5c0ea39a1453244c3868faa010cdcc4048fe9,254e760e46a63c6e,0,1
977,977,0,810b244001f054ffb637154afba5c0ea39a1453244c3868faa010cdcc4048fe9,3276a944ca1d22de,0,1
978,978,0,810b244001f054ffb637154afba5c0ea39a1453244c3868faa010cdcc4048fe9,1f7ac5589cbac7e1,0,1
979,979,0,810b244001f054ffb637154afba5c0ea39a1453244c3868faa010cdcc4048fe9,2290ed78b2458261,0,1
980,980,0,89eaa204d65dbc40c9db8e1cfb7651ae7c4f28d82f4e3bb821f7542324241183,a82ffca16500a7c9,0,1
981,981,0,89eaa204d65dbc40c9db8e1cfb7651ae7c4f28d82f4e3bb821f7542324241183,c118bd89b39b2c02,0,1
982,982,0,89eaa204d65dbc40c9db8e1cfb7651ae7c4f28d82f4e3bb821f7542324241183,2a34db3ce8959b7b,0,1
983,983,0,89eaa204d65dbc40c9db8e1cfb7651ae7c4f28d82f4e3bb821f7542324241183,ff2a0f800224d081,0,1
984,984,0,b3489b762581b7fb3f984ebb855a095a886783ac0c685a547ed237a6ab1a4c90,5703a5df52a8ec6d,0,1
985,985,0,b3489b762581b7fb3f984ebb855a095a886783ac0c685a547ed237a6ab1a4c90,f161c3224ca2859c,0,1
986,986,0,b3489b762581b7fb3f984ebb855a095a886783ac0c685a547ed237a6ab1a4c90,97f120233b308055,0,1
987,987,0,b3489b762581b7fb3f984ebb855a095a886783ac0c685a547ed237a6ab1a4c90,023dba6b20455791,0,1
988,988,0,87a2a6c4b1ecf83a6c2cb62a84dac63debe80219428662ecc93518e8be863b86,758a6edf3871db93,0,1
989,989,0,87a2a6c4b1ecf83a6c2cb62a84dac63debe80219428662ecc93518e8be863b86,1ddc72f41b14f23e,0,1
990,990,0,87a2a6c4b1ecf83a6c2cb62a84dac63debe80219428662ecc93518e8be863b86,c1882424c42aef84,0,1
991,991,0,87a2a6c4b1ecf83a6c2cb62a84dac63debe80219428662ecc93518e8be863b86,dfed81a46ed912cd,0,1
992,992,0,b84f5ee5f6c862801aa0140507bf71a7f1f811da868f4d15044bebdf9a634328,5a905aa1dd7219fc,0,1
993,993,0,b84f5ee5f6c862801aa0140507bf71a7f1f811da868f4d15044bebdf9a634328,2a5a163035c1e611,0,1
994,994,0,b84f5ee5f6c862801aa0140507bf71a7f1f811da868f4d15044bebdf9a634328,093258d565ec4b7e,0,1
995,995,0,b84f5ee5f6c862801aa0140507bf71a7f1f811da868f4d15044bebdf9a634328,5c1f378d236545e1,0,1
996,996,0,a83fd921ee0702c22ca2fb1ef875cf649b5869a2b69242895e3d0bb74d1ef33e,bc635b21546d3436,0,1
997,997,0,a83fd921ee0702c22ca2fb1ef875cf649b5869a2b69242895e3d0bb74d1ef33e,37466142984017d7,0,1
998,998,0,a83fd921ee0702c22ca2fb1ef875cf649b5869a2b69242895e3d0bb74d1ef33e,61dc617d1718ac93,0,1
999,999,0,a83fd921ee0702c22ca2fb1ef875cf649b5869a2b69242895e3d0bb74d1ef33e,0146136fa77af21d,0,1
1000,1000,0,88b26336abcc838790918ec58b9364ee9c47e63b047b05a7e42ff0c8a0db8bb0,e58efde0a0280558,0,1
1001,1001,0,88b26336abcc838790918ec58b9364ee9c47e63b047b05a7e42ff0c8a0db8bb0,a8b2f1615b881f8f,0,1
1002,1002,0,88b26336abcc838790918ec58b9364ee9c47e63b047b05a7e42ff0c8a0db8bb0,14c2c659fbd7d220,0,1
1003,1003,0,88b26336abcc838790918ec58b9364ee9c47e63b047b05a7e42ff0c8a0db8bb0,4340e077849bfc15,0,1
1004,1004,0,ab43a14e807638b64039681d734db99f1fa0b0f9269d75d67ddcd839527755a3,26f3ae1f78df4534,0,1
1005,1005,0,ab43a14e807638b64039681d734db99f1fa0b0f9269d75d67ddcd839527755a3,9142496d45961ad9,0,1
1006,1006,0,ab43a14e807638b64039681d734db99f1fa0b0f9269d75d67ddcd839527755a3,7ccf78b2edd0bc7a,0,1
1007,1007,0,ab43a14e807638b64039681d734db99f1fa0b0f9269d75d67ddcd839527755a3,e1c133d56cc64d11,0,1
1008,1008,0,b9752a896d5b610b22d67b93e8303437fecf4ef9675cc30a60ee3c2043e59d8e,7726c9d1a3718909,0,1
1009,1009,0,b9752a896d5b610b22d67b93e8303437fecf4ef9675cc30a60ee3c2043e59d8e,e5a0de20dc67e239,0,1
1010,1010,0,b9752a896d5b610b22d67b93e8303437fecf4ef9675cc30a60ee3c2043e59d8e,0dd1db05130ff427,0,1
1011,1011,0,b9752a896d5b610b22d67b93e8303437fecf4ef9675cc30a60ee3c2043e59d8e,6d1c6e017285c2d5,0,1
1012,1012,0,b7dd5593a9f254a18ff336ae09ca7727bc9ec426775eaa6a6ddf7b5ce8517228,f99db2ceb8169c02,0,1
1013,1013,0,b7dd5593a9f254a18ff336ae09ca7727bc9ec426775eaa6a6ddf7b5ce8517228,6baeb9649f0d05f8,0,1
1014,1014,0,b7dd5593a9f254a18ff336ae09ca7727bc9ec426775eaa6a6ddf7b5ce8517228,c5aaee4a9c1b3bbe,0,1
1015,1015,0,b7dd5593a9f254a18ff336ae09ca7727bc9ec426775eaa6a6ddf7b5ce8517228,d086dab69154ae9d,0,1
1016,1016,0,b4de74f9619230fd175f2df9b5686fbf5f985a2b07d8601dcece38fac1ec076b,ec2c0c17c9de6b44,0,1
1017,1017,0,b4de74f9619230fd175f2df9b5686fbf5f985a2b07d8601dcece38fac1ec076b,50c33ae69f72f37f,0,1
1018,1018,0,b4de74f9619230fd175f2df9b5686fbf5f985a2b07d8601dcece38fac1ec076b,71b9a7c2043c7706,0,1
1019,1019,0,b4de74f9619230fd175f2df9b5686fbf5f985a2b07d8601dcece38fac1ec076b,852a4f95c9aabbed,0,1
1020,1020,0,b212577b092052eb18637667b8f93f9f9b03a7570699af5477be57c005186f5e,e4ee5390756ccff1,0,1
1021,1021,0,b212577b092052eb18637667b8f93f9f9b03a7570699af5477be57c005186f5e,56557aee6423793d,0,1
1022,1022,0,b212577b092052eb18637667b8f93f9f9b03a7570699af5477be57c005186f5e,144e8a173adefbb6,0,1
1023,1023,0,b212577b092052eb18637667b8f93f9f9b03a7570699af5477be57c005186f5e,bf0c49869f2e7b2d,0,1
