00
00
00
00
90
00
00
05
00
91
00
00
00
00
00
00
00
07
00
07
27
00
00
27
8a
03
7f
28
00
15
15
15
66
00
0d
42
00
0f
04
08
00
20
00
80
00
07
15
15
15
00
07
00
3f
00
00
00
00
00
00
00
00
00
00
3f
dd
0d
00
06
00
04
00
06
00
04
00
06
00
04
00
00
00
11
11
11
00
00
00
3f
dd
0d
00
05
00
05
00
05
00
05
00
05
00
05
00
00
00
11
11
11
00
00
00
3f
dd
0d
00
00
00
04
00
00
00
04
00
00
00
04
00
00
00
11
11
11
00
00
00
3f
dd
0d
00
0d
00
06
00
0d
00
06
00
0d
00
06
00
00
00
11
11
11
00
00
00
3f
ee
0e
00
0e
00
06
00
0e
00
06
00
0e
00
06
00
00
00
11
11
11
00
00
00
00
00
70
00
00
00
00
00
00
00
00
00
00
00
00
00
00
00
00
00
00
00
00
00
00
00
70
00
00
00
00
00
00
00
00
00
00
00
00
00
00
00
00
00
00
00
00
00
00
00
70
00
00
00
00
00
00
00
00
3f
3f
38
00
00
00
07
00
00
00
00
00
7f
11
11
0f
11
11
05
ff
ff
0f
11
11
0f
11
11
80
80
08
80
28
00
00
00
00
00
00
00
15
00
00
00
00
00
00
00
00
00
00
00
ff
ff
ff
40
40
40
2a
2a
2a
00
00
ff
ff
ff
40
40
40
2a
2a
2a
5d
5d
5d
aa
0a
07
00
ff
ff
ff
ff
ff
00
00
99
99
99
99
99
0f
11
11
0f
11
11
05
ff
ff
0f
11
11
0f
11
11
0f
11
11
0f
11
11
05
ff
ff
0f
11
11
0f
11
11
00
00
00
aa
00
02
00
